﻿[   
	{
		'Type':'System.Windows.Controls.TextBlock', 
		'Attributes': {
			'Name':	'TbCurrentDateTime',
			'PropertyKey':'LocalizedCurrentDateTimeString'					
		}
	},
    {
		'Type':'System.Windows.Controls.TextBlock', 
		'Attributes': {
			'Name':	'TbLobbyName',
			'PropertyKey': 'place_name'					
		}
	},
	{
		'Type':'System.Windows.Controls.TextBlock', 
		'Attributes': {
			'Name':	'TbVersion',
			'Title':'',
			'DeviceProperty':'Version'					
		}
	},
	{
		'Type':'System.Windows.Controls.TextBlock', 
		'Attributes': {
			'Name':	'TbDeviceNumber',
			'Title':'',
			'DeviceProperty':'SsdNumber'					
		}
	},
	{
		'Type':'System.Windows.Controls.TextBlock', 
		'Attributes': {
			'Name':	'TbLastShiftId',
			'PropertyKey':'last_shift_no'					
		}
	},
	{
		'Type':'System.Windows.Controls.TextBlock', 
		'Attributes': {
			'Name':	'TbShiftId',
			'PropertyKey':'shift_no'					
		}
	},
    {
        'Type': 'System.Windows.Controls.Image',
        'Attributes': {
            'Name': 'Logo',
            'Source': 'data/images/logo.png'
        }
    },
    {
		'Type':'ConstantProperty', 
		'Attributes': {
			'Name':	'Hopper2InsertionCount',
			'Value':''
		}
	},
    {
        'Type': 'Application.Properties.SetValueSwitchCaseValue',
        'Attributes': {
            'Property': 'ReturnHopper2CasseteChecked'
        },
        'Routes':{
			'EjectHopper2CasseteChecked':{
				'False':'False'
            }
		}
    },
    {
		'Type':'Application.RouterByPropertyValue', 
		'Routes':{
			'ReturnHopper2CasseteChecked':{
				'True':'Hopper2Insertion-SetCountToInsert',
				'False':'ChooseActions-CheckCardEncashment',
				'':'ChooseActions-CheckCardEncashment',
				'error':'ChooseActions-CheckCardEncashment'
			}
		}
	},
    {
        'Type': 'Transition',
        'Attributes': {
            'Name': 'Hopper2Insertion-SetCountToInsert',
            'Destination': 'Hopper2Insertion-SetCountToInsert'
        }
    },
    {
        'Type': 'Transition',
        'Attributes': {
            'Name': 'ChooseActions-CheckCardEncashment',
            'Destination': 'ChooseActions-CheckCardEncashment'
        }
    }
]