﻿[    
	{
		'Type':'System.Windows.Controls.TextBlock', 
		'Attributes': {
			'Name':	'TbCurrentDateTime',
			'PropertyKey':'LocalizedCurrentDateTimeString'					
		}
	},
    {
        'Type': 'Style',
        'Attributes': {
            'Name': 'Styles',
            'FileName': 'data/Troikastyles.xaml'
        }
    },
	{
		'Type':'Transition', 
		'Attributes': {
			'Name':	'TroikaCard-CancelPayment',
			'Destination':'TroikaCard-CancelPayment'
		}
	},
    {
		'Type':'Application.Operation.SetAttributes', 
		'InParameters': {
			'numberOfCrystal': 'property:mfuid'
        }
	},    
    {
		'Type':'Transition', 
		'Attributes': {
			'Name':	'TroikaCardCompletion-processClwriteResponse',
			'Destination':'TroikaCardCompletion-processClwriteResponse'
		}
	},
    {
		'Type':'Application.Metro.PreparePropertiesForTicketPurchase', 
		'Attributes': {
			'Name':	'CardReaderPerformTicketPurchase',
		    'TicketCode': '3'
        },
		'Routes':{
			'Result':{
				'success':'stay',
				'cancel':'TroikaCard-CancelPayment'
			}
		}
	},
	{
        'Type': 'Application.Properties.Subtraction',
        'Attributes': {
            'Minuend': 'property:SumValue',
            'BottomLimit': '0',
            'Result': 'ServerSum',
            'VariablesType': 'float'
        },
        'Parameters': [ 
            'property:ClBlankPrice'
        ]
    },
    {
		'Type':'Application.SendRequestAndProcessResponse', 
		'Attributes': {
			'Async': 'True',
			'Transport':'Askp1',
			'DisableResultCode':'True',
			'RequestText':'method=cl_write&devtype=$$$devtype$$$&devserial=$$$devserial$$$&session_id=$$$sessionid$$$', 
		    'AttributeToCheck': 'result',
            'SetStateWithNumber': '2000',
            'ValueOfState': '1',
            'AttributeValues': '901,902,903,904,905,906,907,921,922,923'
		},
		'InParameters':{
            'ticket_code': 'property:ticketCode',
            'service_id': 'property:ServiceID',
            'price': 'property:ServerSum',
            'pay_type': 'property:PaymentTypeValue'
        },
        'OutParameters':{
			'response':'property:response',
			'ResultCode':'property:ResultCode'
		},
	    'Routes': {
            'ResultCode': {
                '0': 'TroikaCardCompletion-processClwriteResponse',
                '!=0': 'TroikaCard-CancelPayment'
            }
        }
    },
    {
		'Type':'System.Windows.Media.ImageBrush', 
		'Attributes': {
			'Name':	'ImgBackground',
			'SourceImage':'data/images/Troika/waiting-bg.png'					
		}
	},
	{
		'Type':'System.Windows.Controls.TextBlock', 
		'Attributes': {
			'Name':	'TbLobbyName',
			'PropertyKey': 'place_name'					
		}
	},
	{
		'Type':'System.Windows.Controls.TextBlock', 
		'Attributes': {
			'Name':	'TbDeviceNumber',
			'Title':'',
			'DeviceProperty':'SsdNumber'					
		}
	}
]