﻿[    
	{
		'Type':'System.Windows.Controls.TextBlock', 
		'Attributes': {
			'Name':	'TbCurrentDateTime',
			'PropertyKey':'LocalizedCurrentDateTimeString'					
		}
	},
    {
		'Type':'Application.IdleTimer', 
		'Attributes': {
			'TimeSpan':'1',
			'Destination':'TroikaCard-DropCard',
			'Type':'Normal'
		}
	},
	{
        'Type': 'Style',
        'Attributes': {
            'Name': 'Styles',
            'FileName': 'data/Troikastyles.xaml'
        }
    },
	{
		'Type':'Application.Operation.SetAttributes', 
		'InParameters': {
			'Result': 'Завершена',
            'serviceName': 'Пополнение К',
            'operationName': 'Новая тройка',
            'numberOfTicket': 'property:ticket_no',
            'numberOfCrystal': 'property:mfuid',
            'shiftId': 'property:shift_id',
            'balanceBefore': 'property:Balance',
            'balanceAfter': 'property:NewBalance',
            'insertedSum': 'property:SumValue',
            'price': 'property:SumValue'
        }
	},    
    {
		'Type':'System.Windows.Controls.TextBlock', 
		'Attributes': {
			'Name':	'TbLobbyName',
			'PropertyKey': 'place_name'					
		}
	},
	{
		'Type':'Transition', 
		'Attributes': {
			'Name':	'TroikaCard-DropCard',
			'Destination':'TroikaCard-DropCard'
		}
	},
	{
		'Type':'System.Windows.Media.ImageBrush', 
		'Attributes': {
			'Name':	'ImgBackground',
			'SourceImage':'data/images/Troika/waiting-bg.png'					
		}
	},
    {
		'Type':'System.Windows.Controls.TextBlock', 
		'Attributes': {
			'Name':	'TbLobbyName',
			'PropertyKey': 'place_name'					
		}
	},
    {
		'Type':'System.Windows.Controls.TextBlock', 
		'Attributes': {
			'Name':	'TbDeviceNumber',
			'Title':'',
			'DeviceProperty':'SsdNumber'					
		}
	}
]