﻿[
	{
		'Type':'System.Windows.Controls.TextBlock', 
		'Attributes': {
			'Name':	'TbDeviceNumber',
			'Title':'',
			'DeviceProperty':'SsdNumber'					
		}
	},
    {
        'Type': 'System.Windows.Controls.Button',
        'Attributes': {
            'Name': 'BtnSecret',
            'Command': 'ScenarioTransitionCommand',
            'Destination': 'MGTLogin'
        }
    },
	{
		'Type':'ConstantProperty', 
		'Attributes': {
			'Name':	'sessionId',
			'Value':'set:sessionId'
		}
	},
	{
		'Type':'System.Windows.Controls.TextBlock', 
		'Attributes': {
			'Name':	'TbCurrentDateTime',
			'PropertyKey':'LocalizedCurrentDateTimeString'					
		}
	},
    {
        'Type': 'System.Windows.Controls.TextBlock',
        'Attributes': {
            'Name': 'TbLobbyName',
            'PropertyKey': 'place_name'
        }
    },
	{
		'Type':'Transition', 
		'Attributes': {
			'Name':	'unavailable',
			'Destination':'unavailable'
		}
	},
	{
		'Type':'System.Windows.Media.ImageBrush', 
		'Attributes': {
			'Name':	'ImgOverlayBackground',
			'SourceImage':'data/images/overlay.png'					
		}
	},
	{
		'Type':'System.Windows.Media.ImageBrush', 
		'Attributes': {
			'Name':	'ImgBackground',
			'SourceImage':'data/images/E-bg.png'					
		}
	},
	{
		'Type':'System.Windows.Controls.Image', 
		'Attributes': {
			'Name':	'ImgLogo',
			'Source':'data/images/logo.png'				
		}
	},
	{
		'Type':'Application.RouterByPropertyValue', 
		'Routes':{
			'DeviceMode':{
				'True':'MGT',
				'False':'unavailable',
				'null':'unavailable',
				'':'unavailable'
			}
		}
	},
    {
        'Type': 'System.Windows.Controls.TextBlock',
        'Attributes': {
            'Name': 'TbUniversalControllerState',
            'PropertyKey': 'universalcontrollerstatus'
        }
    }
]