﻿[
	{
		'Type':'Application.IdleTimer', 
		'Attributes': {
			'TimeSpan':'-1',
			'Destination':'checkinsidedoorstate',
			'Type':'Normal'
		}
	},
	{
		'Type':'Transition', 
		'Attributes': {
			'Name':	'CheckDoors',
			'Destination':'CheckDoors'
		}
	},
	{
		'Type':'Transition', 
		'Attributes': {
			'Name':	'AppStart-getshiftstate',
			'Destination':'AppStart-getshiftstate'
		}
	},
	{
		'Type':'Application.RouterByPropertyValue', 
		'Routes':{
			'AppStartFlag':{
				'NotFirst':'CheckDoors',
				'First':'AppStart-getshiftstate'
			}
		}
	},
    {
        'Type': 'Transition',
        'Attributes': {
            'Name': 'failed',
            'Destination': 'unavailable'
        }
    },
    {
		'Type':'System.Windows.Controls.TextBlock', 
		'Attributes': {
			'Name':	'TbCurrentDateTime',
			'PropertyKey':'LocalizedCurrentDateTimeString'					
		}
	},
    {
        'Type': 'System.Windows.Controls.TextBlock',
        'Attributes': {
            'Name': 'TbLobbyName',
            'PropertyKey': 'place_name'
        }
    },
    {
        'Type': 'System.Windows.Controls.TextBlock',
        'Attributes': {
            'Name': 'TbDeviceNumber',
            'Title': '',
            'DeviceProperty': 'SsdNumber'
        }
    },
    {
        'Type': 'System.Windows.Media.ImageBrush',
        'Attributes': {
            'Name': 'ImgOverlayBackground',
            'SourceImage': 'data/images/overlay.png'
        }
    },
    {
        'Type': 'System.Windows.Media.ImageBrush',
        'Attributes': {
            'Name': 'ImgBackground',
            'SourceImage': 'data/images/E-bg.png'
        }
    },
    {
        'Type': 'System.Windows.Controls.Image',
        'Attributes': {
            'Name': 'ImgLogo',
            'Source': 'data/images/logo.png'
        }
    }
]