﻿[
	{
		'Type':'Application.IdleTimer', 
		'Attributes': {
			'TimeSpan':'0.5',
			'Destination':'CheckAppStartFlag',
			'Type':'Normal',
		    'DisableReset': 'True'
		}
	},
	{
		'Type':'InvokeMethod', 
		'Attributes': {
			'Name':	'StopCheckingTransportAvailability',
			'Async':'False'		
		}	
	},
	{
		'Type':'System.Windows.Controls.TextBlock', 
		'Attributes': {
			'Name':	'TbDeviceNumber',
			'Title':'',
			'DeviceProperty':'SsdNumber'					
		}
	},
	{
		'Type':'System.Windows.Controls.TextBlock', 
		'Attributes': {
			'Name':	'TbCurrentDateTime',
			'PropertyKey':'LocalizedCurrentDateTimeString'					
		}
	},
    {
        'Type': 'System.Windows.Controls.TextBlock',
        'Attributes': {
            'Name': 'TbLobbyName',
            'PropertyKey': 'place_name'
        }
    },
	{
		'Type':'ConstantProperty', 
		'Attributes': {
			'Name':	'sessionId',
			'Value':'set:sessionId'
		}
	},
	{
		'Type':'Transition', 
		'Attributes': {
			'Name':	'unavailable',
			'Destination':'unavailable'
		}
	},
	{
		'Type':'Transition', 
		'Attributes': {
			'Name':	'CheckAppStartFlag',
			'Destination':'CheckAppStartFlag'
		}
	},
	{
		'Type':'System.Windows.Media.ImageBrush', 
		'Attributes': {
			'Name':	'ImgOverlayBackground',
			'SourceImage':'data/images/overlay.png'					
		}
	},
	{
		'Type':'System.Windows.Media.ImageBrush', 
		'Attributes': {
			'Name':	'ImgBackground',
			'SourceImage':'data/images/E-bg.png'					
		}
	},
	{
		'Type':'System.Windows.Controls.Image', 
		'Attributes': {
			'Name':	'ImgLogo',
			'Source':'data/images/logo.png'				
		}
	},
	{
		'Type':'Application.SendRequestAndProcessResponse', 
		'Attributes': {
			'Async': 'True',
			'DisableResultCode': 'True',
            'Transport':'SoiWed',
			'RequestText':'method=system&act=getDeviceInfo&edn=$$$SsdNumber$$$&fields=edtype,address,status&lang=ru&version=$$$ClientVersion$$$&sign=0&format=1'		
		},
		'OutParameters':{
			'address':'property:place_name',
			'edtype':'property:SsdType',
			'status':'property:SsdStatus',
		    'error':'property:Error'
        },
		'Routes':{
            'status': {
                'active': 'stay',
                '0': 'unavailable',
                'error': 'unavailable'
            },
            'error':{
				'1010':'unavailable',
				'':'unavailable',
				'error':'unavailable'
				}
		}	
	}
]