﻿[		
	{
		'Type':'System.Windows.Controls.TextBlock', 
		'Attributes': {
			'Name':	'TbCurrentDateTime',
			'PropertyKey':'LocalizedCurrentDateTimeString'					
		}
	},
    {
		'Type':'Transition', 
		'Attributes': {
			'Name':	'success',
			'Destination':'main2'
		}
	},
    
    {
        'Type': 'System.Windows.Controls.TextBlock',
        'Attributes': {
            'Name': 'TbShiftId',
            'PropertyKey': 'shift_no'
        }
    },
	{
		'Type':'ConstantProperty', 
		'Attributes': {
			'Name':	'sessionId',
			'Value':'set:sessionId'
		}
	},
	{
		'Type':'System.Windows.Controls.TextBlock', 
		'Attributes': {
			'Name':	'TbLobbyName',
			'PropertyKey': 'place_name'					
		}
	},
	{
		'Type':'System.Windows.Controls.TextBlock', 
		'Attributes': {
			'Name':	'TbVersion',
			'Title':'',
			'DeviceProperty':'Version'					
		}
	},	
	{
		'Type':'System.Windows.Controls.TextBlock', 
		'Attributes': {
			'Name':	'TbDeviceNumber',
			'Title':'',
			'DeviceProperty':'SsdNumber'					
		}
	},
	{
		'Type':'System.Windows.Controls.TextBlock', 
		'Attributes': {
			'Name':	'TbLastShiftId',
			'PropertyKey':'last_shift_no'					
		}
	},
	{
		'Type':'System.Windows.Controls.Image', 
		'Attributes': {
			'Name':	'Logo',
			'Source':'data/images/logo.png'				
		}
	},
	{
		'Type':'ShowPage'
	},
	{
		'Type':'Application.Print', 
		'Attributes': {
            'PrinterName':'Fiscal',
			'TextToPrint':'openshiftreport',
			'TextSource':'property', //property,cheque
			'PaperCut':'Full', //Full,None
			'Async':'False',		
		    'Reinitialize': 'True'			
		},
		'Routes':{
			'result':{
					'success':'main',
					'fail':'main',	
				}
		}
	}	
]