﻿[    
	{
		'Type':'System.Windows.Controls.TextBlock', 
		'Attributes': {
			'Name':	'TbCurrentDateTime',
			'PropertyKey':'LocalizedCurrentDateTimeString'					
		}
	},
    {
		'Type':'Application.IdleTimer', 
		'Attributes': {
			'TimeSpan':'460',
            'DisableReset': 'True',
			'Destination':'TroikaCardPaymentByCard-PaymentError',
			'Type':'Normal'
		}
	},
	{
        'Type': 'Style',
        'Attributes': {
            'Name': 'Styles',
            'FileName': 'data/Troikastyles.xaml'
        }
    },   
    {
		'Type':'Application.SetOutputValuesForUniversalController', 
		'Attributes': {
            'LightZone1Output':'0'		    
        }
	},	
	{
		'Type':'System.Windows.Controls.TextBlock', 
		'Attributes': {
			'Name':	'TbLobbyName',
			'PropertyKey': 'place_name'					
		}
	},
	{
		'Type':'ConstantProperty', 
		'Attributes': {
			'Name':	'SumValue',
			'Value':'set:PaymentSum'
		}
	},
	{
		'Type':'System.Windows.Controls.TextBlock', 
		'Attributes': {
			'Name':	'TbDeviceNumber',
			'Title':'',
			'DeviceProperty':'SsdNumber'					
		}
	},
    {
        'Type': 'System.Windows.Controls.TextBlock',
        'Attributes': {
            'Name': 'TbNewBalance',
            'PropertyKey': 'NewBalance'
        }
    },
    {
		'Type':'Application.Operation.SetAttributes', 
		'InParameters': {
			'AuthCode': 'property:AuthCode'
        }
	},
	{
		'Type':'Transition', 
		'Attributes': {
			'Name':	'TroikaCardPrepareByCard-main',
			'Destination':'TroikaCardPrepareByCard-main'
		}
	},
	{
		'Type':'Transition', 
		'Attributes': {
			'Name':	'TroikaCardPaymentByCard-PaymentError',
			'Destination':'TroikaCardPaymentByCard-PaymentError'
		}
	},
	{
		'Type':'Application.BankSoftware', 
		'Attributes': {
				'Module':'SBRF',
				'MethodName':'SetCommonPropertyName'
			},
		'Parameters':[
				''
			]				
	},
	{
		'Type':'Application.BankSoftware', 
		'Attributes': {
				'Module':'SBRF',
				'MethodName':'SuspendTransaction'
			},
		'Parameters':[
				'property:PaymentSum',
				'property:AuthCode'
			],
		'Routes':{
			'ResultCode':{
				'0':'TroikaCardPrepareByCard-main',
				'!=0':'TroikaCardPaymentByCard-PaymentError'
			}
		}				
	},
    {
        'Type': 'System.Windows.Media.ImageBrush',
        'Attributes': {
            'Name': 'ImgBackground',
            'SourceImage': 'data/images/Troika/main-bg.png'
        }
    },
    {
		'Type':'System.Windows.Controls.Image', 
		'Attributes': {
			'Name':	'Line',
			'Source':'data/images/Troika/line.png'				
		}
	},
    {
		'Type':'System.Windows.Controls.Image', 
		'Attributes': {
			'Name':	'ImgEjectCard',
			'Source':'data/images/Troika/troyka-card.png'				
		}
	}
]