﻿[    
	{
		'Type':'System.Windows.Controls.TextBlock', 
		'Attributes': {
			'Name':	'TbCurrentDateTime',
			'PropertyKey':'LocalizedCurrentDateTimeString'					
		}
	},
    {
		'Type':'Application.IdleTimer', 
		'Attributes': {
			'TimeSpan':'0.1',
			'Destination':'TroikaCard-FinalState',
			'Type':'Normal'
		}
	},
	{
        'Type': 'Style',
        'Attributes': {
            'Name': 'Styles',
            'FileName': 'data/Troikastyles.xaml'
        }
    },
    {
        'Type': 'Application.CardDispenser',
        'Attributes': {
            'MethodName': 'ChangeCardCounter',
            'CardDispenserNumber': '$$$ActiveCardDispenser$$$'
        },
        'Parameters': [ 
            'increase', // increase/decrease = decrease
            'dropped',  // balance, dropped, captured = balance
            '1'         // count = 1
        ]
    },
	{
		'Type':'ConstantProperty', 
		'Attributes': {
			'Name':	'OperationName',
			'Value':'troikaewalletcompletion'
		}
	},	
    {
        'Type': 'Application.CardDispenser',
        'Attributes': {
            'MethodName': 'ChangeCardCounter'
        },
        'Parameters': [ 
            'increase', // increase/decrease = decrease
            'dropped',  // balance, dropped, captured = balance
            '1'         // count = 1
        ]
    },	
    {
		'Type':'Application.Print', 
		'Attributes': {
            'PrinterName':'Fiscal',
			'FilePath':'Data\\Cheques.json',
			'TextToPrint':'NewCardTroikaWithcompletion',
			'TextSource':'cheque', //property,cheque
			'PaperCut':'Full', //Full,None
			'Async':'False'			
		}
	},
	{
        'Type': 'Transition',
        'Attributes': {
            'Name': 'TroikaCard-FinalState',
            'Destination': 'TroikaCard-FinalState'
        }
    },
    {
		'Type':'System.Windows.Media.ImageBrush', 
		'Attributes': {
			'Name':	'ImgBackground',
			'SourceImage':'data/images/Troika/main-bg.png'					
		}
	},
	{
		'Type':'System.Windows.Controls.Image', 
		'Attributes': {
			'Name':	'ImgEjectCard',
			'Source':'data/images/Troika/troyka-card.png'				
		}
	},
	{
		'Type':'System.Windows.Controls.Image', 
		'Attributes': {
			'Name':	'ImgInfList',
			'Source':'data/images/Troika/inf-list.png'				
		}
	},
	{
		'Type':'System.Windows.Controls.Image', 
		'Attributes': {
			'Name':	'Arrow',
			'Source':'data/images/Troika/arrow-down.png'				
		}
	},
	{
		'Type':'System.Windows.Controls.Image', 
		'Attributes': {
			'Name':	'Line',
			'Source':'data/images/Troika/line.png'				
		}
	},
	{
		'Type':'System.Windows.Controls.TextBlock', 
		'Attributes': {
			'Name':	'TbLobbyName',
			'PropertyKey': 'place_name'					
		}
	},
    {
		'Type':'System.Windows.Controls.TextBlock', 
		'Attributes': {
			'Name':	'TbDeviceNumber',
			'Title':'',
			'DeviceProperty':'SsdNumber'					
		}
	}
]