﻿[    
	{
		'Type':'System.Windows.Controls.TextBlock', 
		'Attributes': {
			'Name':	'TbCurrentDateTime',
			'PropertyKey':'LocalizedCurrentDateTimeString'					
		}
	},
    {
        'Type': 'Style',
        'Attributes': {
            'Name': 'Styles',
            'FileName': 'data/Troikastyles.xaml'
        }
    },
    {
		'Type':'Application.SetOutputValuesForUniversalController', 
		'Attributes': {
            'LightZone2Output':'1'		    
        }
	},
	{
		'Type': 'Application.CardDispenser',
        'Attributes': {
            'MethodName': 'DropCardWithTimeSpan',
            'CardDispenserNumber': '$$$ActiveCardDispenser$$$'
        },
        'Parameters': [ 
            '60'
        ],
        'Routes':{
			'result':{
				'success':'TroikaCardTicketPurchaseByCard-DropCardResult',
				'error':'TroikaCardTicketPurchaseByCard-ErrorDropCard'
			}
		}
	},
    {
		'Type':'Transition', 
		'Attributes': {
			'Name':	'TroikaCardTicketPurchaseByCard-DropCardResult',
			'Destination':'TroikaCardTicketPurchaseByCard-DropCardResult'
		}
	},
    {
		'Type':'Transition', 
		'Attributes': {
			'Name':	'TroikaCardTicketPurchaseByCard-ErrorDropCard',
			'Destination':'TroikaCardTicketPurchaseByCard-ErrorDropCard'
		}
	},
    {
		'Type':'System.Windows.Media.ImageBrush', 
		'Attributes': {
			'Name':	'ImgBackground',
			'SourceImage':'data/images/Troika/main-bg.png'					
		}
	},
	{
		'Type':'System.Windows.Controls.Image', 
		'Attributes': {
			'Name':	'ImgEjectCard',
			'Source':'data/images/Troika/troyka-card.png'				
		}
	},
	{
		'Type':'System.Windows.Controls.Image', 
		'Attributes': {
			'Name':	'ImgInfList',
			'Source':'data/images/Troika/inf-list.png'				
		}
	},
	{
		'Type':'System.Windows.Controls.Image', 
		'Attributes': {
			'Name':	'Arrow',
			'Source':'data/images/Troika/arrow-down.png'				
		}
	},
	{
		'Type':'System.Windows.Controls.Image', 
		'Attributes': {
			'Name':	'Line',
			'Source':'data/images/Troika/line.png'				
		}
	},
    {
		'Type':'System.Windows.Controls.TextBlock', 
		'Attributes': {
			'Name':	'TbOddSum',
			'PropertyKey':'OddSum'					
		}
	},
    {
        'Type': 'System.Windows.Controls.Image',
        'Attributes': {
            'Name': 'ImgChange',
            'Source': 'data/images/Troika/change.png'
        }
    },
	{
		'Type':'System.Windows.Controls.TextBlock', 
		'Attributes': {
			'Name':	'TbLobbyName',
			'PropertyKey': 'place_name'					
		}
	},
    {
		'Type':'System.Windows.Controls.TextBlock', 
		'Attributes': {
			'Name':	'TbDeviceNumber',
			'Title':'',
			'DeviceProperty':'SsdNumber'					
		}
	}
]