﻿[
  {
    'Type': 'System.Windows.Controls.TextBlock',
    'Attributes': {
      'Name': 'TbCurrentDateTime',
      'PropertyKey': 'LocalizedCurrentDateTimeString'
    }
  },
  {
    'Type': 'Application.IdleTimer',
    'Attributes': {
      'TimeSpan': '7',
      'Destination': 'main',
      'Type': 'Normal'
    }
  },
  {
    'Type': 'Style',
    'Attributes': {
      'Name': 'Styles',
      'FileName': 'data/Troikastyles.xaml'
    }
  },
  {
    'Type': 'Application.Operation.SetAttributes',
    'InParameters': {
      'Result': 'Отменена',
      'ResultDetalization': 'Возможно карта не записана'
    }
  },
  {
    'Type': 'Application.CardDispenser',
    'Attributes': {
      'MethodName': 'CaptureCardWithTimeSpan',
      'CardDispenserNumber': '$$$ActiveCardDispenser$$$'
    },
    'Parameters': [
      '10'
    ]
  },
  {
    'Type': 'Application.BankSoftware',
    'Attributes': {
      'Module': 'SBRF',
      'MethodName': 'SetCommonPropertyName'
    },
    'Parameters': [
      ''
    ]
  },
  {
    'Type': 'Application.BankSoftware',
    'Attributes': {
      'Module': 'SBRF',
      'MethodName': 'RollbackTransaction'
    },
    'Parameters': [
      'property:RemainsSum',
      'property:AuthCode'
    ]
  },
  {
    'Type': 'ReplaceSymbolsInProperty',
    'Attributes': {
      'PropertyName': 'SumValue'
    },
    'InParameters': {
      ',00': ''
    }
  },
  {
    'Type': 'Application.SendRequestAndProcessResponse',
    'Attributes': {
      'Async': 'False',
      'Transport': 'SoiWed',
      'ShouldSaveInQueue': 'True',
      'RequestText': 'method=operation&act=spOperation&edn=$$$devserial$$$&spc=mgtaskp&spsc=tr_cb2_cancel_card&spsmc=Payment&lang=ru&version=$$$ClientVersion$$$&sign=0&format=1'
    },
    'InParameters': {
      'CollateralSum': 'property:ClBlankPrice',
      'uid': 'property:mfuid',
      'sid': 'property:paymentId',
      'oddsum': 'property:ejectedSum',
      'ticketdescr': 'property:TicketTitle',
      'nominals': 'property:nominals',
      'amount': 'property:TicketPrice',
		    'contributed': 'property:SumValue',
      'coinnominals': 'property:coinnominals',
      'ticketsid': 'property:ServiceID',
      'ticketnum': 'property:ticket_no',
      'price': 'property:TicketPrice',
      'cardrrn': 'property:rrn',
      'cardnum': 'property:CardId',
      'CardCaptured': '1'
    }
  },
  {
    'Type': 'Application.SendRequestAndProcessResponse',
    'Attributes': {
      'Async': 'True',
      'Transport': 'Askp1',
      'ShouldSaveInQueue': 'True',
      'RequestText': 'method=cl_error&devtype=$$$devtype$$$&devserial=$$$devserial$$$&session_id=$$$sessionId$$$',
      'AttributeToCheck': 'resultCode',
      'SetStateWithNumber': '2000',
      'ValueOfState': '1',
      'AttributeValues': '901,902,903,904,905,906,907,921,922,923'
    },
    'InParameters': {
      'error_type': '4'
    },
    'OutParameters': {
      'ResultCode': 'property:ResultCode'
    }
  },
  {
    'Type': 'System.Windows.Media.ImageBrush',
    'Attributes': {
      'Name': 'ImgBackground',
      'SourceImage': 'data/images/Troika/common-bg.png'
    }
  },
  {
    'Type': 'System.Windows.Controls.Image',
    'Attributes': {
      'Name': 'Line',
      'Source': 'data/images/Troika/line.png'
    }
  },
  {
    'Type': 'System.Windows.Controls.TextBlock',
    'Attributes': {
      'Name': 'TbLobbyName',
      'PropertyKey': 'place_name'
    }
  },
  {
    'Type': 'System.Windows.Controls.TextBlock',
    'Attributes': {
      'Name': 'TbDeviceNumber',
      'Title': '',
      'DeviceProperty': 'SsdNumber'
    }
  },
  {
    'Type': 'Application.SetOutputValuesForUniversalController',
    'Attributes': {
      'LightZone9Output': '0'
    }
  }
]