﻿[    
	{
		'Type':'System.Windows.Controls.TextBlock', 
		'Attributes': {
			'Name':	'TbCurrentDateTime',
			'PropertyKey':'LocalizedCurrentDateTimeString'					
		}
	},
    {
		'Type':'EraseProperties', 
		'Attributes': {
		},
		'Parameters':[
			'PaymentApplication'
		]
	},
	{
        'Type': 'Style',
        'Attributes': {
            'Name': 'Styles',
            'FileName': 'data/Troikastyles.xaml'
        }
    },
    {
		'Type':'Application.Operation.CreateOperation',
		'Attributes':{
			'ResultOfOperation': 'Отменена',
			'NameOfOperation':'Новая тройка',
			'OperationType':'NewCardTicketWriteSale',
			'numberOfCrystal': 'property:mfuid',
            'PaymentType':'Card',
			'NameShort':'Билет Тройки',
            'ShiftId': '$$$shift_id$$$',
		    'ShiftNo': '$$$shift_no$$$'
		},
		'Routes':{
			'result':{
					'success':'stay'	
				}
		}
	},
	{
        'Type': 'Application.CardDispenser',
        'Attributes': {
            'MethodName': 'CaptureCardWithTimeSpan',
            'CardDispenserNumber': '$$$ActiveCardDispenser$$$'
        },
        'Parameters': [ 
            '10'
        ],
        'Routes':{
			'result':{
				'success':'main',
				'error':'main'
			}
		}
	},
	{
		'Type':'System.Windows.Media.ImageBrush', 
		'Attributes': {
			'Name':	'ImgBackground',
			'SourceImage':'data/images/Troika/main-bg.png'					
		}
	},
	{
		'Type':'System.Windows.Controls.Image', 
		'Attributes': {
			'Name':	'ImgEjectCard',
			'Source':'data/images/Troika/troyka-card.png'				
		}
	},
	{
		'Type':'System.Windows.Controls.Image', 
		'Attributes': {
			'Name':	'ImgInfList',
			'Source':'data/images/Troika/inf-list.png'				
		}
	},
	{
		'Type':'System.Windows.Controls.Image', 
		'Attributes': {
			'Name':	'Arrow',
			'Source':'data/images/Troika/arrow-down.png'				
		}
	},
	{
		'Type':'System.Windows.Controls.Image', 
		'Attributes': {
			'Name':	'Line',
			'Source':'data/images/Troika/line.png'				
		}
	},
	{
		'Type':'System.Windows.Controls.TextBlock', 
		'Attributes': {
			'Name':	'TbLobbyName',
			'PropertyKey': 'place_name'					
		}
	},
    {
		'Type':'System.Windows.Controls.TextBlock', 
		'Attributes': {
			'Name':	'TbDeviceNumber',
			'Title':'',
			'DeviceProperty':'SsdNumber'					
		}
	}
]