﻿[    
	{
		'Type':'System.Windows.Controls.TextBlock', 
		'Attributes': {
			'Name':	'TbCurrentDateTime',
			'PropertyKey':'LocalizedCurrentDateTimeString'					
		}
	},
    {
		'Type':'Application.IdleTimer', 
		'Attributes': {
			'TimeSpan':'1',
			'Destination':'TroikaCardTicketPurchaseByCard-DropCard',
			'Type':'Normal'
		}
	},
	{
        'Type': 'Style',
        'Attributes': {
            'Name': 'Styles',
            'FileName': 'data/Troikastyles.xaml'
        }
    },
	{
		'Type':'Application.Operation.SetAttributes', 
		'InParameters': {
			'Result': 'Завершена',
            'numberOfTicket': 'property:ticket_no',
            'balanceBefore': 'property:PaymentSum',
            'oddSum': 'property:ejectedSum',
            'insertedSum': 'property:PaidIn',
            'price': 'property:PaymentSum'
        }
	},    
    {
		'Type':'System.Windows.Controls.TextBlock', 
		'Attributes': {
			'Name':	'TbLobbyName',
			'PropertyKey': 'place_name'					
		}
	},
	{
		'Type':'Transition', 
		'Attributes': {
			'Name':	'TroikaCardTicketPurchaseByCard-DropCard',
			'Destination':'TroikaCardTicketPurchaseByCard-DropCard'
		}
	},
	{
		'Type':'System.Windows.Media.ImageBrush', 
		'Attributes': {
			'Name':	'ImgBackground',
			'SourceImage':'data/images/Troika/waiting-bg.png'					
		}
	},
    {
		'Type':'System.Windows.Controls.TextBlock', 
		'Attributes': {
			'Name':	'TbLobbyName',
			'PropertyKey': 'place_name'					
		}
	},
    {
		'Type':'System.Windows.Controls.TextBlock', 
		'Attributes': {
			'Name':	'TbDeviceNumber',
			'Title':'',
			'DeviceProperty':'SsdNumber'					
		}
	}
]