﻿[		
	{
		'Type':'System.Windows.Controls.TextBlock', 
		'Attributes': {
			'Name':	'TbCurrentDateTime',
			'PropertyKey':'LocalizedCurrentDateTimeString'					
		}
	},
    {
		'Type':'ConstantProperty', 
		'Attributes': {
			'Name':	'sessionId',
			'Value':'set:sessionId'
		}
	},
	{
		'Type':'System.Windows.Controls.TextBlock', 
		'Attributes': {
			'Name':	'TbLobbyName',
			'PropertyKey': 'place_name'					
		}
	},
	{
		'Type':'System.Windows.Controls.TextBlock', 
		'Attributes': {
			'Name':	'TbVersion',
			'Title':'',
			'DeviceProperty':'Version'					
		}
	},
	{
		'Type':'System.Windows.Controls.TextBlock', 
		'Attributes': {
			'Name':	'TbDeviceNumber',
			'Title':'',
			'DeviceProperty':'SsdNumber'					
		}
	},
	
    {
        'Type': 'System.Windows.Controls.TextBlock',
        'Attributes': {
            'Name': 'TbShiftId',
            'PropertyKey': 'shift_no'
        }
    },
	{
		'Type':'System.Windows.Controls.TextBlock', 
		'Attributes': {
			'Name':	'TbLastShiftId',
			'PropertyKey':'last_shift_no'					
		}
	},
	{
		'Type':'System.Windows.Controls.Image', 
		'Attributes': {
			'Name':	'Logo',
			'Source':'data/images/logo.png'				
		}
	},
	{
		'Type':'Transition', 
		'Attributes': {
			'Name':	'CardDispenser2GetGoods-main',
			'Destination':'CardDispenser2GetGoods-main'
		}
	},
	{
		'Type':'Transition', 
		'Attributes': {
			'Name':	'CloseShiftWithoutPrinting-main',
			'Destination':'CloseShiftWithoutPrinting-main'
		}
	},
	{
        'Type':'ConstantProperty', 
		'Attributes': {
			'Name':	'sessionId',
			'Value':'set:sessionId'
		}
	},
    {
		'Type':'Application.SendRequestAndProcessResponse', 
		'Attributes': {
			'Async': 'True',
			'Transport':'Askp1',
			'RequestText':'method=ref_cl_blank&devtype=$$$devtype$$$&devserial=$$$devserial$$$&session_id=$$$sessionId$$$',
		    'AttributeToCheck': 'resultCode',
            'SetStateWithNumber': '2000',
            'ValueOfState': '1',
            'AttributeValues': '901,902,903,904,905,906,907,921,922,923'
		},
		'InParameters':{
			'shift_id':'property:shift_id'
		},
		'OutParameters':{
			'ResultCode':'property:ResultCode',
		    'blank_price': 'property:ClBlankPrice'
        },
		'Routes':{
			'ResultCode':{
				'0':'CardDispenser2GetGoods-main',
				'':'CloseShiftWithoutPrinting-main',
				'error':'CloseShiftWithoutPrinting-main'			
			}
		}
	}
]