﻿[    
	{
		'Type':'System.Windows.Controls.TextBlock', 
		'Attributes': {
			'Name':	'TbCurrentDateTime',
			'PropertyKey':'LocalizedCurrentDateTimeString'					
		}
	},
    {
		'Type':'Application.IdleTimer', 
		'Attributes': {
			'TimeSpan':'30',
			'Destination':'main',
			'Type':'Normal'
		}
	},
	{
        'Type': 'Style',
        'Attributes': {
            'Name': 'Styles',
            'FileName': 'data/Unitedstyles.xaml'
        }
    },
    {
		'Type':'SensorThread', 
		'Attributes': {
			'MethodOfController':'TopDoorLockInput',
			'DestinationType':'ScenarioState',
			'DestinationValue':'United-closePocketLock',
			'InitiateValue':'1',
			'TimeoutCheck':'1',
			'AsyncMode':'True'				
		}
	},
    {
        'Type': 'Transition',
        'Attributes': {
            'Name': 'United-closePocketLock',
            'Destination': 'United-closePocketLock'
        }
    },
	{
		'Type':'System.Windows.Controls.Button', 
		'Attributes': {
			'Name':	'BtnCancel',
			'Command':'InsideScenarioTransitionCommand',
			'Destination':'main'
		}
	},
    {
		'Type':'System.Windows.Media.ImageBrush', 
		'Attributes': {
			'Name':	'ImgBackground',
			'SourceImage':'data/images/United/common-bg.png'			
		}
	},
	{
		'Type':'System.Windows.Controls.Image', 
		'Attributes': {
			'Name':	'Line',
			'Source':'data/images/United/line.png'			
		}
	},
	{
		'Type':'System.Windows.Controls.TextBlock', 
		'Attributes': {
			'Name':	'TbLobbyName',
			'PropertyKey':'place_name'					
		}
	},
    {
		'Type':'System.Windows.Controls.TextBlock', 
		'Attributes': {
			'Name':	'TbDeviceNumber',
			'Title':'',
			'DeviceProperty':'SsdNumber'					
		}
	}
]
	