﻿[    
	{
		'Type':'System.Windows.Controls.TextBlock', 
		'Attributes': {
			'Name':	'TbCurrentDateTime',
			'PropertyKey':'LocalizedCurrentDateTimeString'					
		}
	},
    {
        'Type': 'Application.IdleTimer',
        'Attributes': {
            'TimeSpan': '60',
            'Destination': 'main',
            'Type': 'Normal'
        }
    },
    {
        'Type': 'Style',
        'Attributes': {
            'Name': 'Styles',
            'FileName': 'data/MGTstyles.xaml'
        }
    },
    {
        'Type': 'Application.Page.ShowWaitingOverlay',
        'Attributes': {
            'UseExitQueue': 'True'
        }
    },
    {
        'Type': 'System.Windows.Controls.TextBlock',
        'Attributes': {
            'Name': 'TbDeviceNumber',
            'Title': '',
            'DeviceProperty': 'SsdNumber'
        }
    },
    {
        'Type': 'System.Windows.Controls.TextBlock',
        'Attributes': {
            'Name': 'TbLobbyName',
            'PropertyKey': 'place_name'
        }
    },
    {
        'Type': 'System.Windows.Media.ImageBrush',
        'Attributes': {
            'Name': 'ImgBackground',
            'SourceImage': 'data/images/MGT/bg.png'
        }
    },
    {
        'Type': 'System.Windows.Media.ImageBrush',
        'Attributes': {
            'Name': 'ImgTicketBtnBg',
            'SourceImage': 'data/images/MGT/e-button90min.png'
        }
    },
    {
        'Type': 'System.Windows.Media.ImageBrush',
        'Attributes': {
            'Name': 'ImgTroykaBtnBg',
            'SourceImage': 'data/images/MGT/button-big.png'
        }
    },
    {
        'Type': 'System.Windows.Controls.Image',
        'Attributes': {
            'Name': 'ImgBtnHelpBg',
            'Source': 'data/images/MGT/square-button-big.png'
        }
    },
    {
        'Type': 'System.Windows.Controls.Image',
        'Attributes': {
            'Name': 'ImgBtnLangBg',
            'Source': 'data/images/MGT/square-button-big_en.png'
        }
    },
    {
        'Type': 'DMS.Scenarios.Classes.MGT.MGTChooseULTicket',
        'Attributes': {
            'Name': 'ChooseTicket',
            'SourceProperty': '$$$TicketsList$$$',
            'DestinationType': 'ScenarioState',
            'Destination': 'United-closePocketLock'
        }
    },
    //---------------МГТ кнопки------------------------------
    {
		'Type':'Transition', 
		'Attributes': {
			'Name':	'United-closePocketLock',
			'Destination':'United-closePocketLock'
		}
	},
    //-------------------------------------------------------
    {
		'Type':'System.Windows.Controls.Button', //кнопочка помощь
		'Attributes': {
			'Name':	'BtnCancel',
			'Command':'InsideScenarioTransitionCommand',
			'Destination':'main'
        }
	}	
]
