﻿[		
	{
		'Type':'System.Windows.Controls.TextBlock', 
		'Attributes': {
			'Name':	'TbCurrentDateTime',
			'PropertyKey':'LocalizedCurrentDateTimeString'					
		}
	},
    {
		'Type':'System.Windows.Controls.TextBlock', 
		'Attributes': {
			'Name':	'TbShiftId',
			'PropertyKey':'shift_no'					
		}
	},
	{
		'Type':'SensorThread', 
		'Attributes': {
			'DisableCheckAtStart': 'True',
            'UseTransitionQueue':'True',
			'MethodOfController':'GetEncashmentLockSensorState',
			'DestinationType':'ScenarioState',
			'DestinationValue':'encashmentdooropened-checkshiftclose',
			'FirstCheckDelay':'1',
			'InitiateValue':'0',
			'TimeoutCheck':'3',
			'AsyncMode':'True'					
		}
	},
	{
		'Type':'System.Windows.Controls.TextBlock', 
		'Attributes': {
			'Name':	'TbLobbyName',
			'PropertyKey': 'place_name'					
		}
	},
	{
		'Type':'System.Windows.Controls.TextBlock', 
		'Attributes': {
			'Name':	'TbVersion',
			'Title':'',
			'DeviceProperty':'Version'					
		}
	},
	{
		'Type':'System.Windows.Controls.TextBlock', 
		'Attributes': {
			'Name':	'TbDeviceNumber',
			'Title':'',
			'DeviceProperty':'SsdNumber'					
		}
	},
	{
		'Type':'System.Windows.Controls.TextBlock', 
		'Attributes': {
			'Name':	'TbLastShiftId',
			'PropertyKey':'last_shift_no'					
		}
	},
	{
		'Type':'Application.IdleTimer', 
		'Attributes': {
			'TimeSpan':'3',
			'Destination':'operationlog',
			'Type':'Normal'
		}
	},
	{
		'Type':'Transition', 
		'Attributes': {
			'Name':	'tick',
			'Destination':'operationlog'
		}
	},
	{
		'Type':'System.Windows.Controls.TextBlock', 
		'Attributes': {
			'Name':	'TbShiftId',
			'PropertyKey':'shift_no'					
		}
	},
	{
		'Type':'System.Windows.Controls.Image', 
		'Attributes': {
			'Name':	'Logo',
			'Source':'data/images/logo.png'				
		}
	},
	{
		'Type':'EraseProperties', 
		'Attributes': {	},
		'Parameters':[
			'filterservicetype',
			'filteroperationtype',
			'filterpaymenttype',
			'filterrangebegintime',
			'filterrangeendtime',
			'filtercrystalnumber',
			'filtercardnumber',
			'filterrangebegindate',
			'filterrangeenddate',
			'filtercount',
			'filtershowlastshift',
			'filtershowunfinished'
		]
	},
	{
		'Type':'ConstantProperty', 
		'Attributes': {
			'Name':	'filtershowlastshift',
			'Value':'true'
		}
	},	
    {
		'Type':'ConstantProperty', 
		'Attributes': {
			'Name':	'FilterTitle',
			'Value':'Операционный журнал последней смены'
		}
	},
]