﻿[		
	{
		'Type':'System.Windows.Controls.TextBlock', 
		'Attributes': {
			'Name':	'TbCurrentDateTime',
			'PropertyKey':'LocalizedCurrentDateTimeString'					
		}
	},
    {
		'Type':'Application.IdleTimer', 
		'Attributes': {
			'TimeSpan':'15',
			'Destination':'operationsfilter',
			'Type':'Normal'
		}
	},
	{
		'Type':'System.Windows.Controls.TextBlock', 
		'Attributes': {
			'Name':	'TbShiftId',
			'PropertyKey':'shift_no'					
		}
	},
	{
		'Type':'System.Windows.Controls.TextBlock', 
		'Attributes': {
			'Name':	'TbValidateError',
			'PropertyKey':'ValidateError'					
		}
	},
    {
		'Type':'System.Windows.Controls.TextBlock', 
		'Attributes': {
			'Name':	'TbLobbyName',
			'PropertyKey': 'place_name'					
		}
	},
	{
		'Type':'System.Windows.Controls.TextBlock', 
		'Attributes': {
			'Name':	'TbVersion',
			'Title':'',
			'DeviceProperty':'Version'					
		}
	},
	{
		'Type':'System.Windows.Controls.TextBlock', 
		'Attributes': {
			'Name':	'TbDeviceNumber',
			'Title':'',
			'DeviceProperty':'SsdNumber'					
		}
	},
	{
		'Type':'System.Windows.Controls.TextBlock', 
		'Attributes': {
			'Name':	'TbLastShiftId',
			'PropertyKey':'last_shift_no'					
		}
	},
	{
		'Type':'System.Windows.Controls.Image', 
		'Attributes': {
			'Name':	'Logo',
			'Source':'data/images/logo.png'				
		}
	},
	{
		'Type':'System.Windows.Controls.Button', 
		'Attributes': {
			'Name':	'BtnBack',
			'Command':'InsideScenarioTransitionCommand',
			'Destination':'operationsfilter'
		}
	}
]