﻿[    
	{
		'Type':'System.Windows.Controls.TextBlock', 
		'Attributes': {
			'Name':	'TbCurrentDateTime',
			'PropertyKey':'LocalizedCurrentDateTimeString'					
		}
	},
	{
        'Type': 'Style',
        'Attributes': {
            'Name': 'Styles',
            'FileName': 'data/Troikastyles.xaml'
        }
    },
	{
		'Type':'ConstantProperty', 
		'Attributes': {
			'Name':	'eWalletBalance',
			'Value':'set:newBalance'
		}
	},
    {
        'Type': 'Application.Metro.ProcessClWriteResponse',
        'Attributes': {
            'Response':'property:response',
            'ProcessService': 'True'
        },
        'Routes': {
            'result': {
                'success': 'TroikaCompletion-confirmRequest',
                'cancel': 'troika-cancelpayment',
                'error': 'TroikaCompletion-errorWritingCards'
            }
        }
    },	
    {
		'Type':'Transition', 
		'Attributes': {
			'Name':	'TroikaCompletion-confirmRequest',
			'Destination':'TroikaCompletion-confirmRequest'
		}
	},
    {
		'Type':'Transition', 
		'Attributes': {
			'Name':	'cancel',
			'Destination':'troika-cancelpayment'
		}
	},
    {
		'Type':'Transition', 
		'Attributes': {
			'Name':	'error',
			'Destination':'TroikaCompletion-errorWritingCards'
		}
	},
    {
		'Type':'System.Windows.Media.ImageBrush', 
		'Attributes': {
			'Name':	'ImgBackground',
			'SourceImage':'data/images/Troika/waiting-bg.png'					
		}
	},
	{
		'Type':'System.Windows.Controls.TextBlock', 
		'Attributes': {
			'Name':	'TbLobbyName',
			'PropertyKey': 'place_name'					
		}
	},
	{
		'Type':'System.Windows.Controls.TextBlock', 
		'Attributes': {
			'Name':	'TbDeviceNumber',
			'Title':'',
			'DeviceProperty':'SsdNumber'					
		}
	}
]