﻿[    
    {
        'Type': 'ConstantProperty',
        'Attributes': {
            'Name': 'ShowButtons',
            'Value': 'False'
        }
    }, 
	{
		'Type':'Application.PaymentStateMachine', 
		'Attributes': {
            'NextState': 'stay',
            'banknoteMinNominal':'-1',
			'banknoteMaxNominal':'property:MaxBill',						
		    'CanUseLocalMaxNominal': 'False',						
		    'UseCoinAcceptor': 'False',
		    'UseCoinLimit': 'False',
		    'ReactionUp':'2'     // 0 - nothing, 1 - reject in overlimit, 2 - reject after overlimit, 3 - stop if equals
        }    
    },
	{
		'Type':'System.Windows.Controls.TextBlock', 
		'Attributes': {
			'Name':	'TbCurrentDateTime',
			'PropertyKey':'LocalizedCurrentDateTimeString'					
		}
	},
    {
		'Type':'Style', 
		'Attributes': {
			'Name':	'Styles',
			'FileName':'data/Troikastyles.xaml'			
		}			
	},
    {
		'Type':'System.Windows.Controls.TextBlock', 
		'Attributes': {
			'Name':	'TbLobbyName',
			'PropertyKey':'place_name'					
		}
	},
	{
		'Type':'System.Windows.Controls.TextBlock', 
		'Attributes': {
			'Name':	'TbDeviceNumber',
			'Title':'',
			'DeviceProperty':'SsdNumber'					
		}
	},
	{
		'Type':'System.Windows.Media.ImageBrush', 
		'Attributes': {
			'Name':	'ImgBackground',
			'SourceImage':'data/images/Troika/common-bg.png'					
		}
	},
	{
		'Type':'ShowPage'
	},   
    {
		'Type':'Application.SetOutputValuesForUniversalController', 
		'Attributes': {
            'LightZone1Output':'0'		    
        }
	},	
    {
		'Type':'Application.NoteAcceptor', 
		'Attributes': {
            'MethodName': 'StopAccepting'
		},
		'Routes':{
			'Result':{
				'success':'stay',
				'fail':'TroikaTicketPayment-PaymentUnavailable'
			}
		}
	},
    {
		'Type':'Application.IdleTimer', 
		'Attributes': {
			'TimeSpan':'2',
            'DisableReset': 'True',
			'Destination':'TroikaTicketIntermediate-Pay',
			'Type':'Normal'
		}
	},
    {
        'Type': 'Transition',
        'Attributes': {
            'Name': 'TroikaTicketPayment-PaymentUnavailable',
            'Destination': 'TroikaTicketPayment-PaymentUnavailable'
        }
    }, 
    {
        'Type': 'Transition',
        'Attributes': {
            'Name': 'TroikaTicketIntermediate-Pay',
            'Destination': 'TroikaTicketIntermediate-Pay'
        }
    }
]