﻿[    
	{
		'Type':'System.Windows.Controls.TextBlock', 
		'Attributes': {
			'Name':	'TbCurrentDateTime',
			'PropertyKey':'LocalizedCurrentDateTimeString'					
		}
	},
    {
        'Type': 'Style',
        'Attributes': {
            'Name': 'Styles',
            'FileName': 'data/Troikastyles.xaml'
        }
    },
	{
		'Type':'System.Windows.Controls.TextBlock', 
		'Attributes': {
			'Name':	'TbLobbyName',
			'PropertyKey': 'place_name'					
		}
	},
    {
		'Type':'System.Windows.Controls.TextBlock', 
		'Attributes': {
			'Name':	'TbDeviceNumber',
			'Title':'',
			'DeviceProperty':'SsdNumber'					
		}
	},
	{
		'Type':'Transition', 
		'Attributes': {
			'Name':	'errorejectcard',
			'Destination':'troika-errorejectcard'
		}
	},
	{
		'Type':'Transition', 
		'Attributes': {
			'Name':	'completionresult2',
			'Destination':'troikaByCard-completionresult2'
		}
	},
	{
		'Type':'System.Windows.Media.ImageBrush', 
		'Attributes': {
			'Name':	'ImgBackground',
			'SourceImage':'data/images/Troika/main-bg.png'					
		}
	},
	{
		'Type':'System.Windows.Controls.Image', 
		'Attributes': {
			'Name':	'ImgEjectCard',
			'Source':'data/images/Troika/troyka-card.png'				
		}
	},
	{
		'Type':'System.Windows.Controls.Image', 
		'Attributes': {
			'Name':	'ImgInfList',
			'Source':'data/images/Troika/inf-list.png'				
		}
	},
    {
        'Type': 'System.Windows.Controls.Image',
        'Attributes': {
            'Name': 'Arrow',
            'Source': 'data/images/Troika/arrow-down.png'
        }
    },
    {
		'Type':'System.Windows.Controls.Image', 
		'Attributes': {
			'Name':	'Line',
			'Source':'data/images/Troika/line.png'				
		}
	},
	{
		'Type':'ShowPage'
	},
	{
     'Type':'Application.SetOutputValuesForUniversalController', //подсвечиваем устройство приема выдачи карт
     'Attributes': {
            'LightZone1Output':'1'
        }
    },
	{
		'Type':'Application.BankSoftware', 
		'Attributes': {
			'Module':'SBRF',
			'MethodName':'CommitTransaction'
		},
		'Parameters':[
				'property:RemainsSum',
				'property:AuthCode'
			],
		'Routes':{
			'ResultCode':{
				'0':'stay',
				'1':'stay'
			}
		}				
	},
	{
		'Type':'Application.CardReader', 
		'Attributes': {
			'MethodName': 'EjectCard'
		},
		'Parameters':[
			'10'
		],
        'Routes':{
			'result':{
				'success':'troikaByCard-completionresult2',
				'error':'troika-errorejectcard'
			}
		}
	}
]