﻿[   
    {
        'Type': 'ConstantProperty',
        'Attributes': {
            'Name': 'ShowButtons',
            'Value': 'False'
        }
    },  
	{
		'Type':'System.Windows.Controls.TextBlock', 
		'Attributes': {
			'Name':	'TbCurrentDateTime',
			'PropertyKey':'LocalizedCurrentDateTimeString'					
		}
	},
    {
        'Type': 'Style',
        'Attributes': {
            'Name': 'Styles',
            'FileName': 'data/Troikastyles.xaml'
        }
    },
    {
		'Type':'System.Windows.Controls.TextBlock', 
		'Attributes': {
			'Name':	'TbLobbyName',
			'PropertyKey': 'place_name'					
		}
	},
    {
		'Type':'System.Windows.Controls.TextBlock', 
		'Attributes': {
            'Name': 'TbWorkWithBank',
			'PropertyKey':'CanPayByCard'					
		}
	},
    {
		'Type':'System.Windows.Controls.TextBlock', 
		'Attributes': {
			'Name':	'TbCoinLimit',
			'PropertyKey':'coinLimit'					
		}
	},
	{
		'Type':'System.Windows.Controls.TextBlock', 
		'Attributes': {
			'Name':	'TbDeviceNumber',
			'Title':'',
			'DeviceProperty':'SsdNumber'					
		}
	},
	{
		'Type':'System.Windows.Controls.TextBlock', 
		'Attributes': {
			'Name':	'TbSumValue',
			'PropertyKey':'SumValue'					
		}
	},
	{
		'Type':'System.Windows.Controls.TextBlock', 
		'Attributes': {
			'Name':	'TbPaymentMin',
			'PropertyKey':'minSum'					
		}
	},
	{
		'Type':'System.Windows.Controls.TextBlock', 
		'Attributes': {
			'Name':	'TbMaxBill',
			'PropertyKey':'MaxBill'					
		}
	},
    {
		'Type':'System.Windows.Controls.TextBlock', 
		'Attributes': {
			'Name':	'TbPaymentMax',
			'PropertyKey':'maxSum'					
		}
	},
	{
		'Type':'System.Windows.Controls.TextBlock', 
		'Attributes': {
			'Name':	'TbBalance',
			'PropertyKey':'Balance'					
		}
	},
	{
		'Type':'System.Windows.Controls.TextBlock', 
		'Attributes': {
			'Name':	'TbNewBalance',
			'PropertyKey':'NewBalance'					
		}
	},
    {
		'Type':'System.Windows.Media.ImageBrush', 
		'Attributes': {
			'Name':	'ImgBackground',
			'SourceImage':'data/images/Troika/main-bg.png'					
		}
	},
	{
		'Type':'System.Windows.Media.ImageBrush', 
		'Attributes': {
			'Name':	'ImgOverlayBackground',
			'SourceImage':'data/images/Troika/waiting-bg.png'					
		}
	},
    {
        'Type': 'System.Windows.Media.ImageBrush',
        'Attributes': {
            'Name': 'ImgTroykaBtnBg',
            'SourceImage': 'data/images/Troika/button.png'
        }
    },
    {
		'Type':'System.Windows.Controls.Image', 
		'Attributes': {
			'Name':	'ImgPaypass',
			'Source':'data/images/Troika/paypass-button.png'			
		}
	},
	{
		'Type':'System.Windows.Controls.Image', 
		'Attributes': {
			'Name':	'PutMoneyLine',
			'Source':'data/images/Troika/put-money.png'				
		}
	},
	{
		'Type':'System.Windows.Controls.Image', 
		'Attributes': {
			'Name':	'Line',
			'Source':'data/images/Troika/line.png'				
		}
	},
	{
		'Type':'System.Windows.Controls.Image', 
		'Attributes': {
			'Name':	'DashedLine',
			'Source':'data/images/Troika/line_sm.png'				
		}
	},
    {
		'Type':'System.Windows.Controls.Image', 
		'Attributes': {
			'Name':	'CancelIcon',
			'Source':'data/images/Troika/cancel-icon.png'				
		}
	},
	{
		'Type':'System.Windows.Media.ImageBrush', 
		'Attributes': {
			'Name':	'ImgTicketBtnBg',
			'SourceImage':'data/images/Troika/paypass-button.png'				
		}
	},
	{
		'Type':'ShowPage'
	},
    {
        'Type': 'Application.Properties.CompareFloatValues',
        'Attributes': {
            'Value1': 'property:SumValue', // Значение, которое необходимо сравнить. Поддерживает property:
            'Value2': 'property:PaymentSum', // значение с которым необходимо сравнивать. Поддерживает property:
            'Operation': '>=', // тип операции. ==,>=,<=,<,>,!=
            //'Period': '5000' // частота проверки в мс. Если нет этого атрибута, производит однократную проверку
        },
        'Routes': {
            'result': {
                'true': 'TroikaPayment-CalculateChange',
                'false': 'TroikaPayment-CheckErrors'
            }
        }
    },
    {
        'Type': 'Transition',
        'Attributes': {
            'Name': 'TroikaPayment-CheckErrors',
            'Destination': 'TroikaPayment-CheckErrors'
        }
    },
    {
        'Type': 'Transition',
        'Attributes': {
            'Name': 'TroikaPayment-CalculateChange',
            'Destination': 'TroikaPayment-CalculateChange'
        }
    }
]