﻿[    
	{
		'Type':'System.Windows.Controls.TextBlock', 
		'Attributes': {
			'Name':	'TbCurrentDateTime',
			'PropertyKey':'LocalizedCurrentDateTimeString'					
		}
	},
    {
		'Type':'Style', 
		'Attributes': {
			'Name':	'Styles',
			'FileName':'data/Troikastyles.xaml'			
		}			
	},
    {
		'Type':'System.Windows.Controls.TextBlock', 
		'Attributes': {
			'Name':	'TbLobbyName',
			'PropertyKey':'place_name'					
		}
	},
	{
		'Type':'System.Windows.Controls.TextBlock', 
		'Attributes': {
			'Name':	'TbDeviceNumber',
			'Title':'',
			'DeviceProperty':'SsdNumber'					
		}
	},
	{
		'Type':'System.Windows.Media.ImageBrush', 
		'Attributes': {
			'Name':	'ImgBackground',
			'SourceImage':'data/images/Troika/common-bg.png'					
		}
	},
	{
		'Type':'ShowPage'
	},
    {
		'Type':'Application.InitDevices', 
		'Attributes': {
            'Async': 'True'
		},
		'Routes':{
			'Result':{
				'success':'TroikaPayment-StartAccepting',
				'fail':'TroikaPayment-PaymentUnavailable'
			}
		},
		'InParameters':
		{
		    'CashInAsync':'True:110,111,112,115,116'
		}
	},
    {
		'Type':'Transition', 
		'Attributes': {
			'Name':	'TroikaPayment-PaymentUnavailable',
			'Destination':'TroikaPayment-PaymentUnavailable'
		}
	},
    {
		'Type':'Transition', 
		'Attributes': {
			'Name':	'TroikaPayment-StartAccepting',
			'Destination':'TroikaPayment-StartAccepting'
		}
	}
]