﻿[    
	{
		'Type':'System.Windows.Controls.TextBlock', 
		'Attributes': {
			'Name':	'TbCurrentDateTime',
			'PropertyKey':'LocalizedCurrentDateTimeString'					
		}
	},
    {
        'Type': 'ConstantProperty',
        'Attributes': {
            'Name': 'ShowButtons',
            'Value': 'True'
        }
    },    
    {
        'Type': 'ConstantProperty',
        'Attributes': {
            'Name': 'ShowButtons',
            'Value': 'False',
            'UseExitQueue': 'True'
        }
    },
    {
		'Type':'System.Windows.Controls.TextBlock', 
		'Attributes': {
			'Name':	'TbShowButtons',
			'PropertyKey':'ShowButtons'					
		}
	},
    {
        'Type': 'Style',
        'Attributes': {
            'Name': 'Styles',
            'FileName': 'data/Troikastyles.xaml'
        }
    },
    {
		'Type':'Application.PaymentStateMachine', 
		'Attributes': {
            'NextState': 'TroikaCardPayment-UpdateAndCheckPropertiesBeforeMin',
            'banknoteMinNominal':'-1',
			'banknoteMaxNominal':'property:MaxBill',					
		    'CanUseLocalMaxNominal': 'True',						
		    'UseCoinAcceptor': 'False',
		    'UseCoinLimit': 'False',
            'ReactionUp':'0'     // 0 - nothing, 1 - reject in overlimit, 2 - reject after overlimit
        }    
    },
    {
		'Type':'Transition', 
		'Attributes': {
			'Name':	'TroikaCardPayment-UpdateAndCheckPropertiesBeforeMin',
			'Destination':'TroikaCardPayment-UpdateAndCheckPropertiesBeforeMin'
		}
	},
	{
		'Type':'System.Windows.Controls.TextBlock', 
		'Attributes': {
			'Name':	'TbLobbyName',
			'PropertyKey': 'place_name'					
		}
	},
	{
        'Type': 'InvokeMethod',
        'Attributes': {
            'Name': 'GetTerminalResourceValue',
            'Async': 'False',
            'PropertyKey': 'CanPayByCard',
            'ParamsIsArray': 'True'
        },
        'Parameters': [
            '999'
        ],
        'Routes': {
            'IsArrowActive': {
                '0': 'keep',
                '1': 'False'
            }
        }
    },
    {
        'Type': 'Application.Properties.Subtraction',
        'Attributes': {
            'Minuend': 'property:PaymentSum',
            'BottomLimit': '0',
            'Result': 'RemainsSum',
            'VariablesType': 'float',
            'UseExitQueue': 'True'
        },
        'Parameters': [ 
            'property:SumValue'
        ]
    },
    {
		'Type':'System.Windows.Controls.TextBlock', 
		'Attributes': {
            'Name': 'TbWorkWithBank',
			'PropertyKey':'CanPayByCard'					
		}
	},
    {
		'Type':'System.Windows.Controls.Button', 
		'Attributes': {
			'Name':	'BtnPayByCard',
			'Command':'InsideScenarioTransitionCommand',
			'Destination':'TroikaCardPayment-StopAcceptingPayByCard'
		}
	},
	{
		'Type':'System.Windows.Controls.Button', 
		'Attributes': {
			'Name':	'BtnCancel',
			'Command':'InsideScenarioTransitionCommand',
			'Destination':'TroikaCardPayment-StopAcceptingByCancel'
		}
	},
    {
		'Type':'System.Windows.Controls.TextBlock', 
		'Attributes': {
			'Name':	'TbCoinLimit',
			'PropertyKey':'coinLimit'					
		}
	},
	{
		'Type':'System.Windows.Controls.TextBlock', 
		'Attributes': {
			'Name':	'TbDeviceNumber',
			'Title':'',
			'DeviceProperty':'SsdNumber'					
		}
	},
	{
		'Type':'System.Windows.Controls.TextBlock', 
		'Attributes': {
			'Name':	'TbSumValue',
			'PropertyKey':'SumValue'					
		}
	},
	{
		'Type':'System.Windows.Controls.TextBlock', 
		'Attributes': {
			'Name':	'TbRemainsSum',
			'PropertyKey':'RemainsSum'					
		}
	},
    {
		'Type':'System.Windows.Controls.TextBlock', 
		'Attributes': {
			'Name':	'TbPaymentSum',
			'PropertyKey':'PaymentSum'					
		}
	},
	{
        'Type': 'System.Windows.Controls.TextBlock',
        'Attributes': {
            'Name': 'TbMaxBill',
            'PropertyKey': 'MaxBill'
        }
    },
    {
		'Type':'System.Windows.Media.ImageBrush', 
		'Attributes': {
			'Name':	'ImgBackground',
			'SourceImage':'data/images/Troika/main-bg.png'					
		}
	},
	{
		'Type':'System.Windows.Media.ImageBrush', 
		'Attributes': {
			'Name':	'ImgOverlayBackground',
			'SourceImage':'data/images/Troika/waiting-bg.png'					
		}
	},
    {
        'Type': 'System.Windows.Media.ImageBrush',
        'Attributes': {
            'Name': 'ImgTroykaBtnBg',
            'SourceImage': 'data/images/Troika/button.png'
        }
    },
    {
		'Type':'System.Windows.Controls.Image', 
		'Attributes': {
			'Name':	'ImgPaypass',
			'Source':'data/images/Troika/paypass-button.png'			
		}
	},
	{
		'Type':'System.Windows.Controls.Image', 
		'Attributes': {
			'Name':	'PutMoneyLine',
			'Source':'data/images/Troika/put-money.png'				
		}
	},
	{
		'Type':'System.Windows.Controls.Image', 
		'Attributes': {
			'Name':	'Line',
			'Source':'data/images/Troika/line.png'				
		}
	},
	{
		'Type':'System.Windows.Controls.Image', 
		'Attributes': {
			'Name':	'DashedLine',
			'Source':'data/images/Troika/line_sm.png'				
		}
	},
    {
		'Type':'System.Windows.Controls.Image', 
		'Attributes': {
			'Name':	'CancelIcon',
			'Source':'data/images/Troika/cancel-icon.png'				
		}
	},
	{
		'Type':'System.Windows.Media.ImageBrush', 
		'Attributes': {
			'Name':	'ImgTicketBtnBg',
			'SourceImage':'data/images/Troika/paypass-button.png'				
		}
	},
    {
		'Type':'System.Windows.Controls.TextBlock', 
		'Attributes': {
			'Name':	'TbDeviceNumber',
			'Title':'',
			'DeviceProperty':'SsdNumber'					
		}
	}
]