﻿[
  {
    'Type': 'System.Windows.Controls.TextBlock',
    'Attributes': {
      'Name': 'TbCurrentDateTime',
      'PropertyKey': 'LocalizedCurrentDateTimeString'
    }
  },
  {
    'Type': 'Style',
    'Attributes': {
      'Name': 'Styles',
      'FileName': 'data/Troikastyles.xaml'
    }
  },
  {
    'Type': 'System.Windows.Media.ImageBrush',
    'Attributes': {
      'Name': 'ImgBackground',
      'SourceImage': 'data/images/Troika/common-bg.png'
    }
  },
  {
    'Type': 'System.Windows.Controls.Image',
    'Attributes': {
      'Name': 'ImgEjectCard',
      'Source': 'data/images/Troika/troyka-card.png'
    }
  },
  {
    'Type': 'System.Windows.Controls.Image',
    'Attributes': {
      'Name': 'Arrow',
      'Source': 'data/images/Troika/arrow-down.png'
    }
  },
  {
    'Type': 'System.Windows.Controls.Image',
    'Attributes': {
      'Name': 'Line',
      'Source': 'data/images/Troika/line.png'
    }
  },
  {
    'Type': 'System.Windows.Controls.TextBlock',
    'Attributes': {
      'Name': 'TbLobbyName',
      'PropertyKey': 'place_name'
    }
  },
  {
    'Type': 'System.Windows.Controls.TextBlock',
    'Attributes': {
      'Name': 'TbDeviceNumber',
      'Title': '',
      'DeviceProperty': 'SsdNumber'
    }
  },
  {
    'Type': 'Application.CardReader',
    'Attributes': {
      'MethodName': 'EjectCard'
    },
    'Parameters': [
      '60'
    ]
  },
  {
    'Type': 'Application.Properties.Addition',
    'Attributes': {
      'Result': 'CardUndefinedStateCounter',
      'VariablesType': 'int'
    },
    'Parameters': [
      'property:CardUndefinedStateCounter',
      '1'
    ]
  },
  {
    'Type': 'ConstantProperty',
    'Attributes': {
      'Name': 'CardUndefinedStateMax',
      'Value': '60'
    }
  },
  {
    'Type': 'Application.RouterByPropertyValue',
    'Routes': {
      'CardUndefinedStateCounter==CardUndefinedStateMax': {
        '0': 'TroikaUndefinedCardState-CheckingCardState',
        '1': 'MGTIdle'
      }
    }
  },
  {
    'Type': 'Transition',
    'Attributes': {
      'Name': 'TroikaUndefinedCardState-CheckingCardState',
      'Destination': 'TroikaUndefinedCardState-CheckingCardState'
    }
  }
]