﻿[    
	{
		'Type':'Application.IdleTimer', 
		'Attributes': {
			'TimeSpan':'0.1',
			'Destination':'TroikaCardTicketPurchase-GiveChange',
			'Type':'Normal'
		}
	},
	{
		'Type':'System.Windows.Controls.TextBlock', 
		'Attributes': {
			'Name':	'TbCurrentDateTime',
			'PropertyKey':'LocalizedCurrentDateTimeString'					
		}
	},
    {
        'Type': 'Style',
        'Attributes': {
            'Name': 'Styles',
            'FileName': 'data/Troikastyles.xaml'
        }
    }, 
    {
        'Type': 'Application.CardDispenser',
        'Attributes': {
            'MethodName': 'SetErrorState',
            'CardDispenserNumber': '$$$ActiveCardDispenser$$$'
        },
        'Parameters': [ 
            '154-0'//номер ошибки-состояние
        ]
    },
    {
		'Type':'Application.SendRequestAndProcessResponse', 
		'Attributes': {
			'Async': 'True',
			'Transport':'Askp1',
			'ShouldSaveInQueue': 'True',
			'DisableResultCode':'True',
            'RequestText':'method=cl_confirm&devtype=$$$devtype$$$&devserial=$$$devserial$$$&session_id=$$$sessionid$$$',
		    'AttributeToCheck': 'result',
            'SetStateWithNumber': '2000',
            'ValueOfState': '1',
            'AttributeValues': '901,902,903,904,905,906,907,921,922,923'		
		},
        'OutParameters':{
			'response':'property:response',
			'ResultCode':'property:ResultCode'
		},
	},
    {
		'Type':'Transition', 
		'Attributes': {
			'Name':	'TroikaCardTicketPurchase-GiveChange',
			'Destination':'TroikaCardTicketPurchase-GiveChange'
		}
	}, 
    {
		'Type':'System.Windows.Media.ImageBrush', 
		'Attributes': {
			'Name':	'ImgBackground',
			'SourceImage':'data/images/Troika/waiting-bg.png'					
		}
	},
	{
		'Type':'System.Windows.Controls.TextBlock', 
		'Attributes': {
			'Name':	'TbLobbyName',
			'PropertyKey': 'place_name'					
		}
	},
	{
		'Type':'System.Windows.Controls.TextBlock', 
		'Attributes': {
			'Name':	'TbDeviceNumber',
			'Title':'',
			'DeviceProperty':'SsdNumber'					
		}
	}
]