﻿[    
	{
		'Type':'System.Windows.Controls.TextBlock', 
		'Attributes': {
			'Name':	'TbCurrentDateTime',
			'PropertyKey':'LocalizedCurrentDateTimeString'					
		}
	},
    {
		'Type':'EraseProperties', 
		'Attributes': {
		},
		'Parameters':[
			'PaymentApplication'
		]
	},
	{
        'Type': 'Style',
        'Attributes': {
            'Name': 'Styles',
            'FileName': 'data/Troikastyles.xaml'
        }
    },
    {
		'Type':'Application.SetOutputValuesForUniversalController', 
		'Attributes': {
            'LightZone2Output':'1'		    
        }
	},
	{
		'Type':'Application.GiveChange', 
		'Attributes': {
			'setting':'OddSum',
			'usehoppers':'true',
			'usenotedispenser':'true',
			'nextstate':'TroikaCardTicketPurchase-PrintCheque',
			'errorstate':'TroikaCardTicketPurchase-ErrorGiveChange',
			'printcheque':'false'
		}
	},
    {
		'Type':'Transition', 
		'Attributes': {
			'Name':	'TroikaCardTicketPurchase-PrintCheque',
			'Destination':'TroikaCardTicketPurchase-PrintCheque'
		}
	},
	{
		'Type':'Transition', 
		'Attributes': {
			'Name':	'TroikaCardTicketPurchase-ErrorGiveChange',
			'Destination':'TroikaCardTicketPurchase-ErrorGiveChange'
		}
	},
	{
		'Type':'System.Windows.Media.ImageBrush', 
		'Attributes': {
			'Name':	'ImgBackground',
			'SourceImage':'data/images/Troika/main-bg.png'					
		}
	},
	{
		'Type':'System.Windows.Controls.Image', 
		'Attributes': {
			'Name':	'ImgEjectCard',
			'Source':'data/images/Troika/troyka-card.png'				
		}
	},
	{
		'Type':'System.Windows.Controls.Image', 
		'Attributes': {
			'Name':	'ImgInfList',
			'Source':'data/images/Troika/inf-list.png'				
		}
	},
	{
		'Type':'System.Windows.Controls.Image', 
		'Attributes': {
			'Name':	'Arrow',
			'Source':'data/images/Troika/arrow-down.png'				
		}
	},
	{
		'Type':'System.Windows.Controls.Image', 
		'Attributes': {
			'Name':	'Line',
			'Source':'data/images/Troika/line.png'				
		}
	},
    {
		'Type':'System.Windows.Controls.TextBlock', 
		'Attributes': {
			'Name':	'TbOddSum',
			'PropertyKey':'OddSum'					
		}
	},
    {
        'Type': 'System.Windows.Controls.Image',
        'Attributes': {
            'Name': 'ImgChange',
            'Source': 'data/images/Troika/change.png'
        }
    },
	{
		'Type':'System.Windows.Controls.TextBlock', 
		'Attributes': {
			'Name':	'TbLobbyName',
			'PropertyKey': 'place_name'					
		}
	},
    {
		'Type':'System.Windows.Controls.TextBlock', 
		'Attributes': {
			'Name':	'TbDeviceNumber',
			'Title':'',
			'DeviceProperty':'SsdNumber'					
		}
	}
]