﻿[   
	{
		'Type':'System.Windows.Controls.TextBlock', 
		'Attributes': {
			'Name':	'TbCurrentDateTime',
			'PropertyKey':'LocalizedCurrentDateTimeString'					
		}
	},
    {
		'Type':'System.Windows.Controls.TextBlock', 
		'Attributes': {
			'Name':	'TbLobbyName',
			'PropertyKey': 'place_name'					
		}
	},
	{
		'Type':'System.Windows.Controls.TextBlock', 
		'Attributes': {
			'Name':	'TbVersion',
			'Title':'',
			'DeviceProperty':'Version'					
		}
	},
	{
		'Type':'System.Windows.Controls.TextBlock', 
		'Attributes': {
			'Name':	'TbDeviceNumber',
			'Title':'',
			'DeviceProperty':'SsdNumber'					
		}
	},
	{
		'Type':'System.Windows.Controls.TextBlock', 
		'Attributes': {
			'Name':	'TbLastShiftId',
			'PropertyKey':'last_shift_no'					
		}
	},
	{
		'Type':'System.Windows.Controls.TextBlock', 
		'Attributes': {
			'Name':	'TbShiftId',
			'PropertyKey':'shift_no'					
		}
	},
    {
        'Type': 'System.Windows.Controls.Image',
        'Attributes': {
            'Name': 'Logo',
            'Source': 'data/images/logo.png'
        }
    },
    {
		'Type':'ConstantProperty', 
		'Attributes': {
			'Name':	'NoteDispenserCassete2InsertionCount',
			'Value':''
		}
	},
    {
        'Type': 'Application.Properties.SetValueSwitchCaseValue',
        'Attributes': {
            'Property': 'ReturnNoteDispenserCassete2Checked'
        },
        'Routes':{
			'EjectNoteDispenserCassete2Checked':{
				'False':'False'
            }
		}
    },
    {
		'Type':'Application.RouterByPropertyValue', 
		'Routes':{
			'ReturnNoteDispenserCassete1Checked':{
				'True':'NoteDispenserCassete2Insertion-SetCountToInsert',
				'False':'Hopper1Insertion-main',
				'':'Hopper1Insertion-main',
				'error':'Hopper1Insertion-main'
			}
		}
	},
    {
        'Type': 'Transition',
        'Attributes': {
            'Name': 'NoteDispenserCassete2Insertion-SetCountToInsert',
            'Destination': 'NoteDispenserCassete2Insertion-SetCountToInsert'
        }
    },
    {
        'Type': 'Transition',
        'Attributes': {
            'Name': 'Hopper1Insertion-main',
            'Destination': 'Hopper1Insertion-main'
        }
    }
]