﻿[		
	{
		'Type':'System.Windows.Controls.TextBlock', 
		'Attributes': {
			'Name':	'TbCurrentDateTime',
			'PropertyKey':'LocalizedCurrentDateTimeString'					
		}
	},
    {
        'Type': 'Application.IdleTimer',
        'Attributes': {
            'TimeSpan': '60',
            'Destination': 'TestCardReader-accepted',
            'Type': 'Normal'
        }
    },
    {
		'Type':'Application.CardReaderWaitForCard', 
		'Attributes': {
			'Name':	'WaitingCard'
		},
		'Routes':{
			'CardType':{
				'mifare':'TestCardReader-accepted',
				'mifareultralight':'TestCardReader-accepted',
				'anothertype':'TestCardReader-accepted'
			}
		}
	},
    {
        'Type': 'System.Windows.Controls.TextBlock',
        'Attributes': {
            'Name': 'TbShiftId',
            'PropertyKey': 'shift_no'
        }
    },
    {
        'Type': 'Transition',
        'Attributes': {
            'Name': 'success',
            'Destination': 'TestCardReader-accepted'
        }
    },
    {
        'Type': 'Transition',
        'Attributes': {
            'Name': 'failed',
            'Destination': 'TestCardReader-main'
        }
    },
    {
        'Type': 'System.Windows.Controls.TextBlock',
        'Attributes': {
            'Name': 'TbLobbyName',
            'PropertyKey': 'place_name'
        }
    },
    {
        'Type': 'System.Windows.Controls.TextBlock',
        'Attributes': {
            'Name': 'TbVersion',
            'Title': '',
            'DeviceProperty': 'Version'
        }
    },
    {
        'Type': 'System.Windows.Controls.TextBlock',
        'Attributes': {
            'Name': 'TbDeviceNumber',
            'Title': '',
            'DeviceProperty': 'SsdNumber'
        }
    },
    {
        'Type': 'System.Windows.Controls.TextBlock',
        'Attributes': {
            'Name': 'TbLastShiftId',
            'PropertyKey': 'last_shift_id'
        }
    },
    {
        'Type': 'System.Windows.Controls.TextBlock',
        'Attributes': {
            'Name': 'TbShiftId',
            'PropertyKey': 'shift_no'
        }
    },
    {
        'Type': 'System.Windows.Controls.Image',
        'Attributes': {
            'Name': 'Logo',
            'Source': 'data/images/logo.png'
        }
    },
    {
        'Type': 'Application.Test.ExecuteCardReaderMethod',
        'Attributes': {
            'Method': 'startaccepting'
        },
        'Routes': {
            'result': {
                'success': 'stay',
                'failed': 'TestCardReader-main'
            }
        }        
    }	
]