﻿[    
	{
		'Type':'System.Windows.Controls.TextBlock', 
		'Attributes': {
			'Name':	'TbCurrentDateTime',
			'PropertyKey':'LocalizedCurrentDateTimeString'					
		}
	},
	{
        'Type': 'Style',
        'Attributes': {
            'Name': 'Styles',
            'FileName': 'data/Unitedstyles.xaml'
        }
    },
	{
		'Type':'Transition', 
		'Attributes': {
			'Name':	'UnitedPrepare-dropcard',
			'Destination':'UnitedPrepare-dropcard'
		}
	},
	{
		'Type':'System.Windows.Controls.TextBlock', 
		'Attributes': {
			'Name':	'TbTicketTitle',
			'PropertyKey':'TicketTitle'					
		}
	},
	{
		'Type':'System.Windows.Controls.TextBlock', 
		'Attributes': {
			'Name':	'TbOddSum',
			'PropertyKey':'OddSum'					
		}
	},
    {
		'Type':'System.Windows.Controls.TextBlock', 
		'Attributes': {
			'Name':	'TbPaymentSum',
			'PropertyKey':'PaymentSum'					
		}
	},
	{
        'Type': 'System.Windows.Media.ImageBrush',
        'Attributes': {
            'Name': 'ImgBackground',
            'SourceImage': 'data/images/United/common-bg.png'
        }
    },
    {
        'Type': 'System.Windows.Controls.Image',
        'Attributes': {
            'Name': 'Line',
            'Source': 'data/images/United/line.png'
        }
    },
    {
        'Type': 'System.Windows.Controls.Image',
        'Attributes': {
            'Name': 'ImgTicket',
            'Source': 'data/images/United/united-ticket.png'
        }
    },
    {
        'Type': 'System.Windows.Controls.Image',
        'Attributes': {
            'Name': 'ImgInfList',
            'Source': 'data/images/United/inf-list.png'
        }
    },
    {
        'Type': 'System.Windows.Controls.Image',
        'Attributes': {
            'Name': 'ImgChange',
            'Source': 'data/images/United/change.png'
        }
    },
    {
        'Type': 'System.Windows.Controls.Image',
        'Attributes': {
            'Name': 'Arrow',
            'Source': 'data/images/United/arrow-down.png'
        }
    },
	{
		'Type':'System.Windows.Controls.TextBlock', 
		'Attributes': {
			'Name':	'TbLobbyName',
			'PropertyKey':'place_name'					
		}
	},
    {
		'Type':'System.Windows.Controls.TextBlock', 
		'Attributes': {
			'Name':	'TbDeviceNumber',
			'Title':'',
			'DeviceProperty':'SsdNumber'					
		}
	},
	{
		'Type':'ShowPage'
	},
    {
		'Type':'Application.IdleTimer', 
		'Attributes': {
			'TimeSpan':'3',
			'Destination':'UnitedPrepare-dropcard',
			'Type':'Normal'
		}
	}
]
	