﻿[    
	{
		'Type':'System.Windows.Controls.TextBlock', 
		'Attributes': {
			'Name':	'TbCurrentDateTime',
			'PropertyKey':'LocalizedCurrentDateTimeString'					
		}
	},
    {
		'Type':'Application.IdleTimer', 
		'Attributes': {
			'TimeSpan':'0.1',
			'Destination':'United-cancelpayment',
			'Type':'Normal'
		}
	},
	{
        'Type': 'Style',
        'Attributes': {
            'Name': 'Styles',
            'FileName': 'data/Unitedstyles.xaml'
        }
    },
	{
		'Type':'System.Windows.Controls.TextBlock', 
		'Attributes': {
			'Name':	'TbLobbyName',
			'PropertyKey':'place_name'					
		}
	},
	{
		'Type':'System.Windows.Controls.TextBlock', 
		'Attributes': {
			'Name':	'TbDeviceNumber',
			'Title':'',
			'DeviceProperty':'SsdNumber'					
		}
	},
	{
		'Type':'System.Windows.Media.ImageBrush', 
		'Attributes': {
			'Name':	'ImgBackground',
			'SourceImage':'data/images/United/common-bg.png'			
		}
	},
    {
        'Type': 'Application.CardDispenser',
        'Attributes': {
            'MethodName': 'SetErrorState',
            'CardDispenserNumber': '$$$ActiveCardDispenser$$$'
        },
        'Parameters': [ 
            '56-1'//номер ошибки-состояние
        ]
    }, 
    {
		'Type':'Transition', 
		'Attributes': {
			'Name':	'United-cancelpayment',
			'Destination':'United-cancelpayment'
		}
	}
]