﻿[   
	{
		'Type':'System.Windows.Controls.TextBlock', 
		'Attributes': {
			'Name':	'TbCurrentDateTime',
			'PropertyKey':'LocalizedCurrentDateTimeString'					
		}
	},
    {
		'Type':'System.Windows.Controls.TextBlock', 
		'Attributes': {
			'Name':	'TbLobbyName',
			'PropertyKey': 'place_name'					
		}
	},
	{
		'Type':'System.Windows.Controls.TextBlock', 
		'Attributes': {
			'Name':	'TbBlankName',
			'PropertyKey': 'cdBlankName1'					
		}
	},
    {
		'Type':'System.Windows.Controls.TextBlock', 
		'Attributes': {
			'Name':	'TbVersion',
			'Title':'',
			'DeviceProperty':'Version'					
		}
	},
	{
		'Type':'System.Windows.Controls.TextBlock', 
		'Attributes': {
			'Name':	'TbDeviceNumber',
			'Title':'',
			'DeviceProperty':'SsdNumber'					
		}
	},
	{
		'Type':'System.Windows.Controls.TextBlock', 
		'Attributes': {
			'Name':	'TbLastShiftId',
			'PropertyKey':'last_shift_no'					
		}
	},
	{
		'Type':'System.Windows.Controls.TextBlock', 
		'Attributes': {
			'Name':	'TbShiftId',
			'PropertyKey':'shift_no'					
		}
	},
	{
		'Type':'System.Windows.Controls.Image', 
		'Attributes': {
			'Name':	'Logo',
			'Source':'data/images/logo.png'				
		}
	},
	{
		'Type':'System.Windows.Controls.TextBlock', 
		'Attributes': {
			'Name':	'TbBalanceOfCD',
			'PropertyKey':'balanceofcd1'					
		}
	},
	{
        'Type': 'Application.CustomKeyboard',
        'Attributes': {
            'ElementName': 'screenKeyboard'
        },
        'Parameters': [
            'Numpad'
        ]
    },
	{
		'Type':'System.Windows.Controls.TextBox', 
		'Attributes': {
			'Name':	'TbInsertionValue',
			'Key':'CardDispenser1InsertionCount',
			'Required':'True',
			'Destination':'CardDispenser2Insertion-main',
			'KeyboardType': 'CustomKeyboard',
            'KeyboardName': 'screenKeyboard',
			'InputMask':'09999',
			'Focused':'True'											
		}
	},
	{
		'Type':'System.Windows.Controls.Button', 
		'Attributes': {
			'Name':	'BtnCancel',
			'Command':'InsideScenarioTransitionCommand',
			'Destination':'main'
		}
	},
	{
		'Type':'System.Windows.Controls.Button', 
		'Attributes': {
			'Name':	'BtnBegin',
			'Command':'InsideScenarioTransitionCommand',
			'Destination':'CardDispenser2Insertion-main'
		}
	}
]