﻿[    
	{
		'Type':'System.Windows.Controls.TextBlock', 
		'Attributes': {
			'Name':	'TbCurrentDateTime',
			'PropertyKey':'LocalizedCurrentDateTimeString'					
		}
	},
    {
		'Type':'Application.IdleTimer', 
		'Attributes': {
			'TimeSpan':'60',
			'Destination':'UnitedByCard-cancelpayment',
			'Type':'Normal'
		}
	},
	{
        'Type': 'Style',
        'Attributes': {
            'Name': 'Styles',
            'FileName': 'data/Unitedstyles.xaml'
        }
    },
	{
		'Type':'System.Windows.Controls.TextBlock', 
		'Attributes': {
			'Name':	'TbLobbyName',
			'PropertyKey':'place_name'					
		}
	},
	{
		'Type':'System.Windows.Controls.TextBlock', 
		'Attributes': {
			'Name':	'TbDeviceNumber',
			'Title':'',
			'DeviceProperty':'SsdNumber'					
		}
	},
	{
		'Type':'ConstantProperty', 
		'Attributes': {
			'Name':	'sessionId',
			'Value':'set:sessionId'
		}
	},
	{
		'Type':'System.Windows.Media.ImageBrush', 
		'Attributes': {
			'Name':	'ImgBackground',
			'SourceImage':'data/images/United/common-bg.png'			
		}
	},	
	{
		'Type':'Application.CardDispenserManager', 
		'Attributes': {
			'MethodName': 'CheckStatesAndSetPropertyValue'
        },
		'Parameters': [
		    'CardDispenserStatus',
		    '152,53',
		    'success',
		    'fail',
            'property:ActiveCardDispenser'
        ]
    },
    {
        'Type': 'Application.RouterByPropertyValue',
        'Routes': {
            'CardDispenserStatus': {
                'success': 'stay',
                'fail': 'UnitedByCard-cancelpayment'
            }
        }
    },
    {
		'Type':'Application.CheckCriticalErrors', 
		'Attributes': {
			'Async':'False'			
		},
		'Parameters':[
            '51',
            '200'
		],
		'Routes':{
			'Result':{
				'0':'stay',
				'1':'UnitedByCard-cancelpayment',
				'error':'UnitedByCard-cancelpayment'
				}
			}
	},
    {
		'Type':'Application.CardDispenserWaitForCard', 
		'Attributes': {
			'Name':	'WaitingCard',
		    'WithoutPrepare': 'True'
        },
		'Routes':{
			'CardType':{
				'mifare':'UnitedPrepatyByCard-captureCardAndNextAttempt',
				'mifareultralight':'UnitedPrepatyByCard-getCardID',
				'anothertype':'UnitedPrepatyByCard-captureCardAndNextAttempt'
				}
		}
	},
    {
		'Type':'Transition', 
		'Attributes': {
			'Name':	'UnitedPrepatyByCard-captureCardAndNextAttempt',
			'Destination':'UnitedPrepatyByCard-captureCardAndNextAttempt'
		}
	},
    {
		'Type':'Transition', 
		'Attributes': {
			'Name':	'UnitedPrepatyByCard-getCardID',
			'Destination':'UnitedPrepatyByCard-getCardID'
		}
	},
    {
		'Type':'Transition', 
		'Attributes': {
			'Name':	'UnitedByCard-cancelpayment',
			'Destination':'UnitedByCard-cancelpayment'
		}
	},
    {
		'Type':'Transition', 
		'Attributes': {
			'Name':	'UnitedPrepatyByCard-CheckCardStateAfterPrepare',
			'Destination':'UnitedPrepatyByCard-CheckCardStateAfterPrepare'
		}
	},
    {
		'Type':'Application.CardDispenser', 
		'Attributes': {
			'MethodName': 'UlPrepareSync',
            'CardDispenserNumber': '$$$ActiveCardDispenser$$$'
        },
		'Routes':{
			'ResultCode':{
				'success':'stay',
				'error':'UnitedPrepatyByCard-CheckCardStateAfterPrepare'
			}
		}
	}
]