﻿[    
	{
		'Type':'System.Windows.Controls.TextBlock', 
		'Attributes': {
			'Name':	'TbCurrentDateTime',
			'PropertyKey':'LocalizedCurrentDateTimeString'					
		}
	},
    {
        'Type': 'Application.IdleTimer',
        'Attributes': {
            'TimeSpan': '60',
            'Destination': 'UnitedByCard-cancelpayment',
            'Type': 'Normal'
        }
    },
	{
        'Type': 'Style',
        'Attributes': {
            'Name': 'Styles',
            'FileName': 'data/Unitedstyles.xaml'
        }
    },
    {
		'Type':'Application.Operation.SetAttributes', 
		'InParameters': {
			'numberOfCrystal': 'property:uluid'
        }
	},    
    {
        'Type': 'Application.CardDispenser',
        'Attributes': {
            'MethodName': 'ReadDumpUL',
            'SaveResultInPropertyWithName': 'uldump',
            'CardDispenserNumber': '$$$ActiveCardDispenser$$$'
        },
        'Parameters': [
            '3'
        ],
        'Routes': {
            'result': {
                'cancel': 'UnitedPrepatyByCard-cancelpayment',
                'nextAttemp': 'UnitedPrepatyByCard-captureCardAndNextAttempt',
                'filled': 'UnitedPrepatyByCard-saleRequest'
            }
        }
    },
	{
		'Type':'System.Windows.Controls.TextBlock', 
		'Attributes': {
			'Name':	'TbLobbyName',
			'PropertyKey':'place_name'					
		}
	},
    {
        'Type': 'System.Windows.Controls.TextBlock',
        'Attributes': {
            'Name': 'TbDeviceNumber',
            'Title': '',
            'DeviceProperty': 'SsdNumber'
        }
    },
    {
		'Type':'Transition', 
		'Attributes': {
			'Name':	'UnitedPrepatyByCard-captureCardAndNextAttempt',
			'Destination':'UnitedPrepatyByCard-captureCardAndNextAttempt'
		}
	},
	{
		'Type':'Transition', 
		'Attributes': {
			'Name':	'UnitedPrepare-saleRequest',
			'Destination':'UnitedPrepatyByCard-saleRequest'
		}
	},
	{
		'Type':'Transition', 
		'Attributes': {
			'Name':	'UnitedByCard-cancelpayment',
			'Destination':'UnitedByCard-cancelpayment'
		}
	},
	{
		'Type':'System.Windows.Media.ImageBrush', 
		'Attributes': {
			'Name':	'ImgBackground',
			'SourceImage':'data/images/United/common-bg.png'			
		}
	}
]