﻿[		
	{
		'Type':'System.Windows.Controls.TextBlock', 
		'Attributes': {
			'Name':	'TbCurrentDateTime',
			'PropertyKey':'LocalizedCurrentDateTimeString'					
		}
	},
    {
		'Type':'Application.IdleTimer', 
		'Attributes': {
			'TimeSpan':'-1',
			'Destination':'main2',
			'Type':'Normal'
		}
	},
	{
		'Type':'SensorThread', 
		'Attributes': {
			'DisableCheckAtStart': 'True',
            'UseTransitionQueue':'True',
			'MethodOfController':'GetEncashmentLockSensorState',
			'DestinationType':'ScenarioState',
			'DestinationValue':'encashmentdooropened-checkshiftclose',
			'FirstCheckDelay':'1',
			'InitiateValue':'0',
			'TimeoutCheck':'3',
			'AsyncMode':'True'					
		}
	},
	{
		'Type':'Application.Print', 
		'Attributes': {
            'PrinterName':'Fiscal',
			'TextToPrint':'ReconciliationReport',
			'TextSource':'property', //property,cheque
			'PaperCut':'Full', //Full,None
			'Async':'False',		
		    'Reinitialize': 'True'			
		},
		'Routes':{
			'result':{
					'success':'operationsfilter-waitstatus',
					'fail':'operationsfilter-waitstatus',	
				}
		}
	},	
	{
		'Type':'System.Windows.Controls.TextBlock', 
		'Attributes': {
			'Name':	'TbShiftId',
			'PropertyKey':'shift_no'					
		}
	},
	{
		'Type':'System.Windows.Controls.TextBlock', 
		'Attributes': {
			'Name':	'TbLobbyName',
			'PropertyKey': 'place_name'					
		}
	},
	{
		'Type':'System.Windows.Controls.TextBlock', 
		'Attributes': {
			'Name':	'TbVersion',
			'Title':'',
			'DeviceProperty':'Version'					
		}
	},
	{
		'Type':'System.Windows.Controls.TextBlock', 
		'Attributes': {
			'Name':	'TbDeviceNumber',
			'Title':'',
			'DeviceProperty':'SsdNumber'					
		}
	},
	{
		'Type':'System.Windows.Controls.TextBlock', 
		'Attributes': {
			'Name':	'TbLastShiftId',
			'PropertyKey':'last_shift_no'					
		}
	},
	{
		'Type':'Transition', 
		'Attributes': {
			'Name':	'finish',
			'Destination':'operationsfilter-waitstatus'
		}
	},
	{
		'Type':'System.Windows.Controls.TextBlock', 
		'Attributes': {
			'Name':	'TbShiftId',
			'PropertyKey':'shift_no'					
		}
	},
	{
		'Type':'System.Windows.Controls.Image', 
		'Attributes': {
			'Name':	'Logo',
			'Source':'data/images/logo.png'				
		}
	}
]