﻿[    
	{
		'Type':'System.Windows.Controls.TextBlock', 
		'Attributes': {
			'Name':	'TbCurrentDateTime',
			'PropertyKey':'LocalizedCurrentDateTimeString'					
		}
	},
    {
		'Type':'Application.IdleTimer', 
		'Attributes': {
			'TimeSpan':'60',
			'Destination':'TroikaCardTicketPurchaseIntermediate-CancelWithoutCancelRequest',
			'Type':'Normal'
		}
	},
	{
        'Type': 'Style',
        'Attributes': {
            'Name': 'Styles',
            'FileName': 'data/Troikastyles.xaml'
        }
    },
	{
		'Type':'System.Windows.Controls.TextBlock', 
		'Attributes': {
			'Name':	'TbLobbyName',
			'PropertyKey':'place_name'					
		}
	},
	{
		'Type':'System.Windows.Controls.TextBlock', 
		'Attributes': {
			'Name':	'TbDeviceNumber',
			'Title':'',
			'DeviceProperty':'SsdNumber'					
		}
	},
    {
		'Type':'Transition', 
		'Attributes': {
			'Name':	'TroikaCardTicketPurchasePrepare-captureCardAndNextAttempt',
			'Destination':'TroikaCardTicketPurchasePrepare-captureCardAndNextAttempt'
		}
	},
	{
		'Type':'Transition', 
		'Attributes': {
			'Name':	'TroikaCardTicketPurchasePrepare-NextAttemptToPrepare',
			'Destination':'TroikaCardTicketPurchasePrepare-NextAttemptToPrepare'
		}
	},
    {
		'Type':'Transition', 
		'Attributes': {
			'Name':	'TroikaCardTicketPurchaseIntermediate-CancelWithoutCancelRequest',
			'Destination':'TroikaCardTicketPurchaseIntermediate-CancelWithoutCancelRequest'
		}
	},
	{
		'Type':'Application.CardDispenser', 
		'Attributes': {
			'MethodName': 'CheckCardDispenserState',
            'CardDispenserNumber': '$$$ActiveCardDispenser$$$'
        },
		'Routes':{
			'ResultCode':{
				'NoCard':'TroikaCardTicketPurchasePrepare-NextAttemptToPrepare',
				'CardInside':'TroikaCardTicketPurchasePrepare-captureCardAndNextAttempt',
                'Error':'TroikaCardTicketPurchaseIntermediate-CancelWithoutCancelRequest'
			}
		}
	},
	{
		'Type':'System.Windows.Media.ImageBrush', 
		'Attributes': {
			'Name':	'ImgBackground',
			'SourceImage':'data/images/Troika/common-bg.png'			
		}
	}
]