﻿[    
	{
		'Type':'System.Windows.Controls.TextBlock', 
		'Attributes': {
			'Name':	'TbCurrentDateTime',
			'PropertyKey':'LocalizedCurrentDateTimeString'					
		}
	},
	{
        'Type': 'Style',
        'Attributes': {
            'Name': 'Styles',
            'FileName': 'data/Troikastyles.xaml'
        }
    },
	{
		'Type':'System.Windows.Controls.TextBlock', 
		'Attributes': {
			'Name':	'TbLobbyName',
			'PropertyKey': 'place_name'					
		}
	},
	{
		'Type':'System.Windows.Controls.TextBlock', 
		'Attributes': {
			'Name':	'TbDeviceNumber',
			'Title':'',
			'DeviceProperty':'SsdNumber'					
		}
	},
	{
		'Type':'System.Windows.Media.ImageBrush', 
		'Attributes': {
			'Name':	'ImgBackground',
			'SourceImage':'data/images/Troika/waiting-bg.png'					
		}
	},
	{
		'Type':'ShowPage'
	},
    {
		'Type':'Application.IdleTimer', 
		'Attributes': {
			'TimeSpan':'0.5',
			'Destination':'TroikaTicketPayment-main',
			'Type':'Normal'
		}
	},
	{
		'Type':'Transition', 
		'Attributes': {
			'Name':	'TroikaTicketPayment-main',
			'Destination':'TroikaTicketPayment-main'
		}
	}
]