﻿[    
	{
		'Type':'System.Windows.Controls.TextBlock', 
		'Attributes': {
			'Name':	'TbCurrentDateTime',
			'PropertyKey':'LocalizedCurrentDateTimeString'					
		}
	},
    {
		'Type':'Application.IdleTimer', 
		'Attributes': {
			'TimeSpan':'15',
			'Destination':'main',
			'Type':'Normal'
		}
	},
	{
        'Type': 'Style',
        'Attributes': {
            'Name': 'Styles',
            'FileName': 'data/Troikastyles.xaml'
        }
    },
    {
		'Type':'ConstantProperty', 
		'Attributes': {
			'Name':	'PaymentSum',
			'Value':'set:balance'
		}
	},
	{
		'Type':'Application.Operation.SetAttributes', 
		'InParameters': {
			'Result': 'Не завершена',
		    'ResultDetalization': 'Возможно карта не записана'
        }
	},
	{
		'Type':'Application.CardReader', 
		'Attributes': {
			'MethodName': 'EjectCard'
		},
		'Parameters':[
			'60'
		]
	},
	{
		'Type':'Application.GiveChange', 
		'Attributes': {
			'setting':'SumValue',
			'usehoppers':'true',
			'usenotedispenser':'true',
			'nextstate':'stay',
			'errorstate':'stay',
			'printcheque':'false'
		}
	},
    {
        'Type': 'Application.SetOutputValuesForUniversalController', // Подача сигнала на закрытие замка
        'Attributes': {
            'LightZone9Output': '0'
        }
    },
    {
		'Type':'System.Windows.Media.ImageBrush', 
		'Attributes': {
			'Name':	'ImgBackground',
			'SourceImage':'data/images/Troika/common-bg.png'					
		}
	},
	{
		'Type':'System.Windows.Controls.Image', 
		'Attributes': {
			'Name':	'Line',
			'Source':'data/images/Troika/line.png'				
		}
	},
	{
		'Type':'System.Windows.Controls.TextBlock', 
		'Attributes': {
			'Name':	'TbLobbyName',
			'PropertyKey': 'place_name'					
		}
	},
    {
		'Type':'System.Windows.Controls.TextBlock', 
		'Attributes': {
			'Name':	'TbDeviceNumber',
			'Title':'',
			'DeviceProperty':'SsdNumber'					
		}
	}
]
	