﻿[    
	{
		'Type':'System.Windows.Controls.TextBlock', 
		'Attributes': {
			'Name':	'TbCurrentDateTime',
			'PropertyKey':'LocalizedCurrentDateTimeString'					
		}
	},
    {
		'Type':'Application.IdleTimer', 
		'Attributes': {
			'TimeSpan':'3',
			'Destination':'TroikaTicket-EjectCard',
			'Type':'Normal'
		}
	},
	{
        'Type': 'Style',
        'Attributes': {
            'Name': 'Styles',
            'FileName': 'data/Troikastyles.xaml'
        }
    },
    {
		'Type':'Transition', 
		'Attributes': {
			'Name':	'TroikaTicket-EjectCard',
			'Destination':'TroikaTicket-EjectCard'
		}
	},
	{
		'Type':'Application.BanknoteCountersService.FillPropertyWithNotesNominals', 
		'Attributes': {
			'PropertyName':'nominals',
		    'UseLocalCounters': 'True'
        }	
	},
    {
		'Type':'Application.CoinCountersService.FillPropertyWithCoinsNominals', 
		'Attributes': {
			'PropertyName':'coinnominals',
		    'UseLocalCounters': 'True'
        }	
	},
    {
		'Type':'Application.SendRequestAndProcessResponse', 
		'Attributes': {
			'Async': 'False',
			'Transport':'SoiWed',
			'ShouldSaveInQueue': 'True',
			'RequestText':'method=operation&act=spOperation&edn=$$$devserial$$$&spc=mgtaskp&spsc=tr_cb_cancel&spsmc=Payment&lang=ru&version=$$$ClientVersion$$$&sign=0&format=1'		
		},
		'InParameters':{
			'uid':'property:mfuid',
			'sid':'property:paymentId',
			'oddsum':'property:ejectedSum',
            'ticketdescr': 'property:TicketTitle',
            'nominals':'property:nominals',
			'amount':'property:PaymentSum',
		    'contributed': 'property:SumValue',
		    'coinnominals': 'property:coinnominals',
		    'ticketsid': 'property:ServiceID',
		    'ticketnum': 'property:ticket_no',
            'issued':'property:ejectedSum',
            'issuednominals':'property:issuednominals',
            'issuedcoinnominals':'property:issuedcoinnominals',
		    'price': 'property:PaymentSum',
		    'CollateralSum': '0',
		    'CardCaptured': '0'
        }
	},
	{
		'Type':'Application.SendRequestAndProcessResponse', 
		'Attributes': {
			'Async': 'True',
			'Transport':'Askp1',
			'ShouldSaveInQueue': 'True',
            'RequestText':'method=cl_error&devtype=$$$devtype$$$&devserial=$$$devserial$$$&session_id=$$$sessionId$$$',
		    'AttributeToCheck': 'resultCode',
            'SetStateWithNumber': '2000',
            'ValueOfState': '1',
            'AttributeValues': '901,902,903,904,905,906,907,921,922,923'	
		}
	},
    {
		'Type':'Application.Operation.SetAttributes', 
		'InParameters': {
			'Result': 'Не завершена',
		    'ResultDetalization': 'С выдачей билета'
        }
	},
    {
		'Type':'Application.Print', 
		'Attributes': {
            'PrinterName':'Fiscal',
			'FilePath':'Data\\Cheques.json',
			'TextToPrint':'ticketpurchasenotcompleted2',
			'TextSource':'cheque', //property,cheque
			'PaperCut':'Full', //Full,None
			'Async':'False'			
		}
	},
	{
		'Type':'System.Windows.Media.ImageBrush', 
		'Attributes': {
			'Name':	'ImgBackground',
			'SourceImage':'data/images/Troika/common-bg.png'					
		}
	},
	{
		'Type':'System.Windows.Controls.Image', 
		'Attributes': {
			'Name':	'Line',
			'Source':'data/images/Troika/line.png'				
		}
	},
	{
		'Type':'System.Windows.Controls.TextBlock', 
		'Attributes': {
			'Name':	'TbLobbyName',
			'PropertyKey': 'place_name'					
		}
	},
    {
		'Type':'System.Windows.Controls.TextBlock', 
		'Attributes': {
			'Name':	'TbDeviceNumber',
			'Title':'',
			'DeviceProperty':'SsdNumber'					
		}
	}
]
	