﻿[    
	{
		'Type':'System.Windows.Controls.TextBlock', 
		'Attributes': {
			'Name':	'TbCurrentDateTime',
			'PropertyKey':'LocalizedCurrentDateTimeString'					
		}
	},
    {
		'Type':'EraseProperties', 
		'Attributes': {
		},
		'Parameters':[
			'PaymentApplication'
			]
	},
	{
        'Type': 'Style',
        'Attributes': {
            'Name': 'Styles',
            'FileName': 'data/Troikastyles.xaml'
        }
    },
	{
		'Type':'Transition', 
		'Attributes': {
			'Name':	'errorejectcard',
			'Destination':'troika-errorejectcardForCompletion'
		}
	},
	{
		'Type':'Transition', 
		'Attributes': {
			'Name':	'completionresult2',
			'Destination':'troika-completionresult2'
		}
	},
	{
		'Type':'System.Windows.Media.ImageBrush', 
		'Attributes': {
			'Name':	'ImgBackground',
			'SourceImage':'data/images/Troika/main-bg.png'					
		}
	},
	{
		'Type':'System.Windows.Controls.Image', 
		'Attributes': {
			'Name':	'ImgEjectCard',
			'Source':'data/images/Troika/troyka-card.png'				
		}
	},
	{
		'Type':'System.Windows.Controls.Image', 
		'Attributes': {
			'Name':	'ImgInfList',
			'Source':'data/images/Troika/inf-list.png'				
		}
	},
	{
		'Type':'System.Windows.Controls.Image', 
		'Attributes': {
			'Name':	'Arrow',
			'Source':'data/images/Troika/arrow-down.png'				
		}
	},
	{
		'Type':'System.Windows.Controls.Image', 
		'Attributes': {
			'Name':	'Line',
			'Source':'data/images/Troika/line.png'				
		}
	},
	{
		'Type':'System.Windows.Controls.TextBlock', 
		'Attributes': {
			'Name':	'TbLobbyName',
			'PropertyKey': 'place_name'					
		}
	},
    {
		'Type':'System.Windows.Controls.TextBlock', 
		'Attributes': {
			'Name':	'TbDeviceNumber',
			'Title':'',
			'DeviceProperty':'SsdNumber'					
		}
	},
	{
		'Type':'ShowPage'
	},
    {
		'Type':'Application.SetOutputValuesForUniversalController', 
		'Attributes': {
            'LightZone2Output':'1'		    
        }
	},	
    {
		'Type':'Application.SetOutputValuesForUniversalController', 
		'Attributes': {
            'LightZone3Output':'1'		    
        }
	},
	{
		'Type':'Application.CardReader', 
		'Attributes': {
			'MethodName': 'EjectCard'
		},
		'Parameters':[
			'60'
		],
        'Routes':{
			'result':{
				'success':'troika-completionresult2',
				'error':'troika-errorejectcardForCompletion'
			}
		}
	}
]