﻿[   
	{
		'Type':'System.Windows.Controls.TextBlock', 
		'Attributes': {
			'Name':	'TbCurrentDateTime',
			'PropertyKey':'LocalizedCurrentDateTimeString'					
		}
	},
    {
		'Type':'System.Windows.Controls.TextBlock', 
		'Attributes': {
			'Name':	'TbLobbyName',
			'PropertyKey': 'place_name'					
		}
	},
	{
		'Type':'System.Windows.Controls.TextBlock', 
		'Attributes': {
			'Name':	'TbVersion',
			'Title':'',
			'DeviceProperty':'Version'					
		}
	},
	{
		'Type':'System.Windows.Controls.TextBlock', 
		'Attributes': {
			'Name':	'TbDeviceNumber',
			'Title':'',
			'DeviceProperty':'SsdNumber'					
		}
	},
	{
		'Type':'System.Windows.Controls.TextBlock', 
		'Attributes': {
			'Name':	'TbLastShiftId',
			'PropertyKey':'last_shift_no'					
		}
	},
	{
		'Type':'System.Windows.Controls.TextBlock', 
		'Attributes': {
			'Name':	'TbShiftId',
			'PropertyKey':'shift_no'					
		}
	},
    {
        'Type': 'System.Windows.Controls.Image',
        'Attributes': {
            'Name': 'Logo',
            'Source': 'data/images/logo.png'
        }
    },
    {
		'Type':'Application.RouterByPropertyValue', 
		'Routes':{
			'CardDispenser1InsertionCount':{
				'0':'PerformEncashment-CheckCardDispenser2InsertCount',
				'':'PerformEncashment-CheckCardDispenser2InsertCount',
				'filled':'PerformEncashment-IncreaseCardDispenser1Counter'
			}
		}
	},
    {
        'Type': 'Transition',
        'Attributes': {
            'Name': 'PerformEncashment-CheckCardDispenser2InsertCount',
            'Destination': 'PerformEncashment-CheckCardDispenser2InsertCount'
        }
    },
    {
        'Type': 'Transition',
        'Attributes': {
            'Name': 'PerformEncashment-IncreaseCardDispenser1Counter',
            'Destination': 'PerformEncashment-IncreaseCardDispenser1Counter'
        }
    }
]