﻿[   
	{
		'Type':'System.Windows.Controls.TextBlock', 
		'Attributes': {
			'Name':	'TbCurrentDateTime',
			'PropertyKey':'LocalizedCurrentDateTimeString'					
		}
	},
    {
        'Type': 'Application.IdleTimer',
        'Attributes': {
            'TimeSpan': '0.1',
            'Destination': 'PerformEncashment-CheckTotalInsertionSum',
            'Type': 'Normal'
        }
    },
	{
		'Type':'System.Windows.Controls.TextBlock', 
		'Attributes': {
			'Name':	'TbLobbyName',
			'PropertyKey': 'place_name'					
		}
	},
	{
		'Type':'System.Windows.Controls.TextBlock', 
		'Attributes': {
			'Name':	'TbVersion',
			'Title':'',
			'DeviceProperty':'Version'					
		}
	},
	{
		'Type':'System.Windows.Controls.TextBlock', 
		'Attributes': {
			'Name':	'TbDeviceNumber',
			'Title':'',
			'DeviceProperty':'SsdNumber'					
		}
	},
	{
		'Type':'System.Windows.Controls.TextBlock', 
		'Attributes': {
			'Name':	'TbLastShiftId',
			'PropertyKey':'last_shift_no'					
		}
	},
	{
		'Type':'System.Windows.Controls.TextBlock', 
		'Attributes': {
			'Name':	'TbShiftId',
			'PropertyKey':'shift_no'					
		}
	},
    {
        'Type': 'System.Windows.Controls.Image',
        'Attributes': {
            'Name': 'Logo',
            'Source': 'data/images/logo.png'
        }
    },
    /*{
        'Type': 'Application.Fiscal',
        'Attributes': {
            'MethodName': 'CashInOutCome',
            'Async': 'false'
        },
        'Parameters': [ 
            '1',
            'property:TotalEncashmentSum'
        ]
    },*/
    {
        'Type': 'Transition',
        'Attributes': {
            'Name': 'PerformEncashment-CheckTotalInsertionSum',
            'Destination': 'PerformEncashment-CheckTotalInsertionSum'
        }
    }
]