﻿[    
	{
		'Type':'System.Windows.Controls.TextBlock', 
		'Attributes': {
			'Name':	'TbCurrentDateTime',
			'PropertyKey':'LocalizedCurrentDateTimeString'					
		}
	},
    {
        'Type': 'Style',
        'Attributes': {
            'Name': 'Styles',
            'FileName': 'data/Troikastyles.xaml'
        }
    },	
	{
		'Type':'System.Windows.Controls.TextBlock', 
		'Attributes': {
			'Name':	'TbLobbyName',
			'PropertyKey': 'place_name'					
		}
	},
	{
		'Type':'System.Windows.Controls.TextBlock', 
		'Attributes': {
			'Name':	'TbDeviceNumber',
			'Title':'',
			'DeviceProperty':'SsdNumber'					
		}
	},
	{
		'Type':'System.Windows.Media.ImageBrush', 
		'Attributes': {
			'Name':	'ImgBackground',
			'SourceImage':'data/images/Troika/waiting-bg.png'					
		}
	},
	{
		'Type':'System.Windows.Controls.TextBlock', 
		'Attributes': {
			'Name':	'TbDeviceNumber',
			'Title':'',
			'DeviceProperty':'SsdNumber'					
		}
	},
	{
		'Type':'ShowPage'
	},
	{
		'Type':'Application.Delay', 
		'Attributes': {
			'Value':'50'
		}
	},
	{
		'Type':'Application.RouterByPropertyValue', 
		'Routes':{
			'SumValue':{
				'0':'TroikaTicket-DeleteOperation',
				'':'TroikaTicket-DeleteOperation',
				'!=0':'TroikaTicketPurchase-main'
				}
		}
	},
	{
		'Type':'Transition', 
		'Attributes': {
			'Name':	'TroikaTicketPurchase-main',
			'Destination':'TroikaTicketPurchase-main'
		}
	},
	{
		'Type':'Transition', 
		'Attributes': {
			'Name':	'TroikaTicket-DeleteOperation',
			'Destination':'TroikaTicket-DeleteOperation'
		}
	}
]