﻿[    
	{
		'Type':'System.Windows.Controls.TextBlock', 
		'Attributes': {
			'Name':	'TbCurrentDateTime',
			'PropertyKey':'LocalizedCurrentDateTimeString'					
		}
	},
    {
		'Type':'Application.IdleTimer', 
		'Attributes': {
			'TimeSpan':'60',
			'Destination':'TroikaCard-CancelPayment',
			'Type':'Normal'
		}
	},
	{
        'Type': 'Style',
        'Attributes': {
            'Name': 'Styles',
            'FileName': 'data/Troikastyles.xaml'
        }
    },
	{
		'Type':'System.Windows.Controls.TextBlock', 
		'Attributes': {
			'Name':	'TbLobbyName',
			'PropertyKey':'place_name'					
		}
	},
	{
		'Type':'System.Windows.Controls.TextBlock', 
		'Attributes': {
			'Name':	'TbDeviceNumber',
			'Title':'',
			'DeviceProperty':'SsdNumber'					
		}
	},
    {
		'Type':'Transition', 
		'Attributes': {
			'Name':	'TroikaCard-CancelPayment',
			'Destination':'TroikaCard-CancelPayment'
		}
	},
    {
		'Type':'Transition', 
		'Attributes': {
			'Name':	'TroikaCardPrepare-CheckErrors',
			'Destination':'TroikaCardPrepare-CheckErrors'
		}
	},
	{
		'Type':'Transition', 
		'Attributes': {
			'Name':	'TroikaCard-CancelPayment',
			'Destination':'TroikaCard-CancelPayment'
		}
	},
    {
        'Type': 'Application.Properties.Addition',
        'Attributes': {
            'Result': 'prepareForSaleAttemptNumber',
            'VariablesType': 'int'
        },
        'Parameters': [ 
            'property:prepareForSaleAttemptNumber',
            '1'
        ]
    },    
    {
		'Type':'Application.RouterByPropertyValue', 
		'Routes':{
			'maxPrepareForSaleAttemptsCount==prepareForSaleAttemptNumber':{
				'0':'TroikaCardPrepare-CheckErrors',
				'1':'TroikaCard-CancelPayment',
				'error':'TroikaCard-CancelPayment'
				}
		}
	},
	{
		'Type':'System.Windows.Media.ImageBrush', 
		'Attributes': {
			'Name':	'ImgBackground',
			'SourceImage':'data/images/Troika/common-bg.png'			
		}
	}
]