﻿[		
	{
		'Type':'System.Windows.Controls.TextBlock', 
		'Attributes': {
			'Name':	'TbCurrentDateTime',
			'PropertyKey':'LocalizedCurrentDateTimeString'					
		}
	},
    {
        'Type': 'Application.IdleTimer',
        'Attributes': {
            'TimeSpan': '-1',
            'Destination': 'TestCashIn-main',
            'Type': 'Normal'
        }
    },
    {
        'Type': 'System.Windows.Controls.TextBlock',
        'Attributes': {
            'Name': 'TbShiftId',
            'PropertyKey': 'shift_no'
        }
    },
    {
        'Type': 'Transition',
        'Attributes': {
            'Name': 'success',
            'Destination': 'TestCashIn-main'
        }
    },
    {
        'Type': 'System.Windows.Controls.TextBlock',
        'Attributes': {
            'Name': 'TbLobbyName',
            'PropertyKey': 'place_name'
        }
    },
    {
        'Type': 'System.Windows.Controls.TextBlock',
        'Attributes': {
            'Name': 'TbVersion',
            'Title': '',
            'DeviceProperty': 'Version'
        }
    },
    {
        'Type': 'System.Windows.Controls.TextBlock',
        'Attributes': {
            'Name': 'TbDeviceNumber',
            'Title': '',
            'DeviceProperty': 'SsdNumber'
        }
    },
    {
        'Type': 'System.Windows.Controls.TextBlock',
        'Attributes': {
            'Name': 'TbLastShiftId',
            'PropertyKey': 'last_shift_id'
        }
    },
    {
        'Type': 'System.Windows.Controls.TextBlock',
        'Attributes': {
            'Name': 'TbShiftId',
            'PropertyKey': 'shift_no'
        }
    },
    {
        'Type': 'System.Windows.Controls.Image',
        'Attributes': {
            'Name': 'Logo',
            'Source': 'data/images/logo.png'
        }
    },
    {
        'Type': 'Application.Test.ExecuteCashInMethod',
        'Attributes': {
            'Method': 'StartAccepting'
        },
        'Routes': {
            'result': {
                'success': 'TestCashIn-main',
                'failed': 'TestCashIn-main'
            }
        }        
    }
	
]