﻿[		
	{
		'Type':'System.Windows.Controls.TextBlock', 
		'Attributes': {
			'Name':	'TbCurrentDateTime',
			'PropertyKey':'LocalizedCurrentDateTimeString'					
		}
	},
    {
		'Type':'Application.IdleTimer', 
		'Attributes': {
			'TimeSpan':'100',
			'Destination':'main',
			'Type':'Normal'
		}
	},
	{
		'Type':'Cheque', 
		'Attributes': {
			'FilePath':	'Data\\Cheques.json',
			'ChequeType': 'GeneralTemplateOfCheque',
			'ChequeName': 'ShiftReport'
		}
	},
	{
		'Type':'System.Windows.Controls.TextBlock', 
		'Attributes': {
			'Name':	'TbShiftId',
			'PropertyKey':'shift_no'					
		}
	},
	{
		'Type':'System.Windows.Controls.TextBlock', 
		'Attributes': {
			'Name':	'TbLobbyName',
			'PropertyKey': 'place_name'					
		}
	},
	{
		'Type':'System.Windows.Controls.TextBlock', 
		'Attributes': {
			'Name':	'TbVersion',
			'Title':'',
			'DeviceProperty':'Version'					
		}
	},
	{
		'Type':'System.Windows.Controls.TextBlock', 
		'Attributes': {
			'Name':	'TbDeviceNumber',
			'Title':'',
			'DeviceProperty':'SsdNumber'					
		}
	},
	{
		'Type':'System.Windows.Controls.TextBlock', 
		'Attributes': {
			'Name':	'TbLastShiftId',
			'PropertyKey':'last_shift_no'					
		}
	},
	{
		'Type':'System.Windows.Controls.Image', 
		'Attributes': {
			'Name':	'Logo',
			'Source':'data/images/logo.png'				
		}
	},
	{
		'Type':'Transition', 
		'Attributes': {
			'Name':	'success',
			'Destination':'CloseShiftWithoutPrinting-operationcreate'
		}
	},
    {
		'Type':'InvokeMethod', 
		'Attributes': {
			'Name':	'GenerateShiftReport'				
		},
		'Routes':{
			'ResultCode':{
				'0':'CloseShiftWithoutPrinting-operationcreate',
				'1':'main',
				'error':'CloseShiftWithoutPrinting-operationcreate'			
			}
		}
	}
]