﻿[
  {
    'Type': 'System.Windows.Controls.TextBlock',
    'Attributes': {
      'Name': 'TbCurrentDateTime',
      'PropertyKey': 'LocalizedCurrentDateTimeString'
    }
  },
  {
    'Type': 'Application.IdleTimer',
    'Attributes': {
      'TimeSpan': '7',
      'Destination': 'main',
      'Type': 'Normal'
    }
  },
  {
    'Type': 'Style',
    'Attributes': {
      'Name': 'Styles',
      'FileName': 'data/Troikastyles.xaml'
    }
  },
  {
    'Type': 'System.Windows.Media.ImageBrush',
    'Attributes': {
      'Name': 'ImgBackground',
      'SourceImage': 'data/images/Troika/main-bg.png'
    }
  },
  {
    'Type': 'System.Windows.Controls.Image',
    'Attributes': {
      'Name': 'ImgEjectCard',
      'Source': 'data/images/Troika/troyka-card.png'
    }
  },
  {
    'Type': 'System.Windows.Controls.Image',
    'Attributes': {
      'Name': 'ImgInfList',
      'Source': 'data/images/Troika/inf-list.png'
    }
  },
  {
    'Type': 'System.Windows.Controls.Image',
    'Attributes': {
      'Name': 'Arrow',
      'Source': 'data/images/Troika/arrow-down.png'
    }
  },
  {
    'Type': 'System.Windows.Controls.Image',
    'Attributes': {
      'Name': 'Line',
      'Source': 'data/images/Troika/line.png'
    }
  },
  {
    'Type': 'System.Windows.Controls.TextBlock',
    'Attributes': {
      'Name': 'TbLobbyName',
      'PropertyKey': 'place_name'
    }
  },
  {
    'Type': 'System.Windows.Controls.TextBlock',
    'Attributes': {
      'Name': 'TbDeviceNumber',
      'Title': '',
      'DeviceProperty': 'SsdNumber'
    }
  },
  {
    'Type': 'ShowPage'
  },
  {
    'Type': 'ReplaceSymbolsInProperty',
    'Attributes': {
      'PropertyName': 'SumValue'
    },
    'InParameters': {
      ',00': ''
    }
  },
  {
    'Type': 'Application.SendRequestAndProcessResponse',
    'Attributes': {
      'Async': 'True',
      'Transport': 'SoiWed',
      'ShouldSaveInQueue': 'True',
      'RequestText': 'method=operation&act=spOperation&edn=$$$devserial$$$&spc=mgtaskp&spsc=tr_cb_confirm_card&spsmc=Payment&lang=ru&version=$$$ClientVersion$$$&sign=0&format=1'
    },
    'InParameters': {
      'uid': 'property:mfuid',
      'sid': 'property:paymentId',
      'oddsum': '0',
      'ticketdescr': 'property:TicketTitle',
      'amount': 'property:PaymentSum',
      'ticketsid': 'property:ServiceID',
      'ticketnum': 'property:ticket_no',
      'price': 'property:PaymentSum',
      'contributed': 'property:PaymentSum',
      'CollateralSum': '0',
      'cardrrn': 'property:rrn',
      'cardnum': 'property:CardId'
    }
  },
  {
    'Type': 'ConstantProperty',
    'Attributes': {
      'Name': 'OperationName',
      'Value': 'troikaewalletcompletion'
    }
  },
  {
    'Type': 'Application.SetOutputValuesForUniversalController',
    'Attributes': {
      'LightZone3Output': '0'
    }
  },
  {
    'Type': 'Application.Print',
    'Attributes': {
      'PrinterName': 'Fiscal',
      'FilePath': 'Data\\Cheques.json',
      'TextToPrint': 'troikaticketpurchaseByCard',
      'TextSource': 'cheque',
      'PaperCut': 'None',
      'Async': 'False'
    }
  },
  {
    'Type': 'Application.Print',
    'Attributes': {
      'PrinterName': 'Fiscal',
      'TextToPrint': '\r\n',
      'PaperCut': 'None',
      'Async': 'False'
    }
  },
  {
    'Type': 'Application.Print',
    'Attributes': {
      'PrinterName': 'Fiscal',
      'TextToPrint': 'PaymentByCardCheque',
      'TextSource': 'Property',
      'PaperCut': 'Full',
      'Async': 'False'
    }
  },
  {
    'Type': 'Application.SetOutputValuesForUniversalController',
    'Attributes': {
      'LightZone9Output': '0'
    }
  }
]