﻿[    
	{
		'Type':'System.Windows.Controls.TextBlock', 
		'Attributes': {
			'Name':	'TbCurrentDateTime',
			'PropertyKey':'LocalizedCurrentDateTimeString'					
		}
	},
    {
		'Type':'Application.IdleTimer', 
		'Attributes': {
			'TimeSpan':'15',
			'Destination':'TroikaCardTicketPurchaseByCard-CaptureCardAndSetCanceled',
			'Type':'Normal'
		}
	},
	{
        'Type': 'Style',
        'Attributes': {
            'Name': 'Styles',
            'FileName': 'data/Troikastyles.xaml'
        }
    },   
    {
		'Type':'Application.SetOutputValuesForUniversalController', 
		'Attributes': {
            'LightZone1Output':'0'		    
        }
	},	
    {
		'Type':'Application.BankSoftware', 
		'Attributes': {
				'Module':'SBRF',
				'MethodName':'SetCommonPropertyName'
			},
		'Parameters':[
				''
			]				
	},
    {
		'Type':'Application.BankSoftware', 
		'Attributes': {
				'Module':'SBRF',
				'MethodName':'RollbackTransaction'
			},
		'Parameters':[
				'property:RemainsSum',
				'property:AuthCode'
			]		
	},	
    {
		'Type':'Transition', 
		'Attributes': {
			'Name':	'TroikaCardTicketPurchaseByCard-CaptureCardAndSetCanceled',
			'Destination':'TroikaCardTicketPurchaseByCard-CaptureCardAndSetCanceled'
		}
	},
	{
		'Type':'System.Windows.Media.ImageBrush', 
		'Attributes': {
			'Name':	'ImgBackground',
			'SourceImage':'data/images/Troika/main-bg.png'					
		}
	},
	{
		'Type':'System.Windows.Controls.TextBlock', 
		'Attributes': {
			'Name':	'TbErrorTitle',
			'PropertyKey':'errortitle'					
		}
	},
	{
		'Type':'System.Windows.Controls.TextBlock', 
		'Attributes': {
			'Name':	'TbLobbyName',
			'PropertyKey': 'place_name'					
		}
	},
    {
		'Type':'System.Windows.Controls.TextBlock', 
		'Attributes': {
			'Name':	'TbDeviceNumber',
			'Title':'',
			'DeviceProperty':'SsdNumber'					
		}
	},//обработка кнопк
	{
		'Type':'System.Windows.Controls.Button', 
		'Attributes': {
			'Name':	'BtnCancel',
			'Command':'InsideScenarioTransitionCommand',
			'Destination':'TroikaCardTicketPurchaseByCard-CaptureCardAndSetCanceled'
		}
	}
]