﻿[    
	{
		'Type':'System.Windows.Controls.TextBlock', 
		'Attributes': {
			'Name':	'TbCurrentDateTime',
			'PropertyKey':'LocalizedCurrentDateTimeString'					
		}
	},
    {
        'Type': 'ConstantProperty',
        'Attributes': {
            'Name': 'ButtonsVisibility',
            'Value': 'format:$$$CardCoder1Availability$$$$$$CardCoder2Availability$$$$$$visibilityoftroyka$$$'
        }
    },
    {
        'Type': 'Application.RouterByPropertyValue',
        'Routes': {
            'ButtonsVisibility': {
                'HiddenHiddenHidden': 'MGTIdle',
                'filled': 'menu'
            }
        }
    },
    {
		'Type':'Style', 
		'Attributes': {
			'Name':	'Styles',
			'FileName':'data/MGTstyles.xaml'			
		}			
	},
	{
		'Type':'System.Windows.Controls.TextBlock', 
		'Attributes': {
			'Name':	'TbLobbyName',
			'PropertyKey': 'place_name'					
		}
	},
	{
		'Type':'System.Windows.Controls.TextBlock', 
		'Attributes': {
			'Name':	'TbDeviceNumber',
			'Title':'',
			'DeviceProperty':'SsdNumber'					
		}
	},
	{
		'Type':'System.Windows.Media.ImageBrush', 
		'Attributes': {
			'Name':	'ImgBackground',
			'SourceImage':'data/images/MGT/bg.png'					
		}
	},
	{
		'Type':'Transition', 
		'Attributes': {
			'Name':	'menu',
			'Destination':'menu'
		}
	}
]